# This file was created Fri Feb  9 09:40:09 2024
# Created by:
#                       :-) GROMACS - gmx saxs, 2023.3 (-:
# 
# Executable:   /opt/dev/Framework/gromacs-2023.3-intel/bin/gmx_mpi
# Data prefix:  /opt/dev/Framework/gromacs-2023.3-intel
# Working dir:  /scratchbeta/dorchies/2075542.mesu2
# Command line:
#   gmx_mpi saxs -f traj_last_2ns.xtc -s topol.tpr -n index.ndx -startq 0.6 -endq 30 -energy 16 -sq saxs_2ns_ACN-0p1M-LiClO4-previous-charges.xvg
# gmx saxs is part of G R O M A C S:
#
# GRoups of Organic Molecules in ACtion for Science
#
@    title "Scattering Intensity"
@    xaxis  label "q (1/nm)"
@    yaxis  label "Intensity (a.u.)"
@TYPE xy
   0.62822      21.19015 
   1.25644      14.89650 
   1.88465      11.33331 
   2.51287      10.11061 
   3.14109       7.63520 
   3.76931       6.20638 
   4.39753       5.09384 
   5.02574       4.34878 
   5.65396       3.77414 
   6.28218       3.54833 
   6.91040       3.55458 
   7.53862       3.70762 
   8.16683       3.98698 
   8.79505       4.40752 
   9.42327       4.98869 
  10.05149       5.73359 
  10.67971       6.73100 
  11.30792       7.95836 
  11.93614       9.41404 
  12.56436      11.17316 
  13.19258      13.37722 
  13.82080      16.20827 
  14.44901      19.58129 
  15.07723      22.89456 
  15.70545      25.55472 
  16.33367      27.06199 
  16.96189      27.46476 
  17.59010      26.94095 
  18.21832      25.50965 
  18.84654      23.46449 
  19.47476      21.06026 
  20.10298      18.53973 
  20.73119      16.12501 
  21.35941      13.89342 
  21.98763      11.97079 
  22.61585      10.38452 
  23.24407       9.06545 
  23.87228       8.02233 
  24.50050       7.16412 
  25.12872       6.48268 
  25.75694       5.90803 
  26.38516       5.44916 
  27.01337       5.07596 
  27.64159       4.77223 
  28.26981       4.52743 
  28.89803       4.33496 
  29.52625       4.18716 
