# This file was created Mon Mar 18 02:55:14 2024
# Created by:
#                       :-) GROMACS - gmx rdf, 2023.3 (-:
# 
# Executable:   /opt/dev/Framework/gromacs-2023.3-intel/bin/gmx_mpi
# Data prefix:  /opt/dev/Framework/gromacs-2023.3-intel
# Working dir:  /scratchbeta/dorchies/2104623.mesu2
# Command line:
#   gmx_mpi rdf -f traj_comp.part0002.xtc -n index.ndx -ref 11 -sel 12 -o rdf_H_water-O_DMF.xvg -cn cn_H_water-O_DMF.xvg
# gmx rdf is part of G R O M A C S:
#
# Glycine aRginine prOline Methionine Alanine Cystine Serine
#
@    title "Cumulative Number RDF"
@    xaxis  label "r (nm)"
@    yaxis  label "number"
@TYPE xy
@ subtitle "reference SOL_&_H*"
@ view 0.15, 0.15, 0.75, 0.85
@ legend on
@ legend box on
@ legend loctype view
@ legend 0.78, 0.8
@ legend length 2
@ s0 legend "DMF_&_O*"
      0.002    0.000
      0.004    0.000
      0.006    0.000
      0.008    0.000
      0.010    0.000
      0.012    0.000
      0.014    0.000
      0.016    0.000
      0.018    0.000
      0.020    0.000
      0.022    0.000
      0.024    0.000
      0.026    0.000
      0.028    0.000
      0.030    0.000
      0.032    0.000
      0.034    0.000
      0.036    0.000
      0.038    0.000
      0.040    0.000
      0.042    0.000
      0.044    0.000
      0.046    0.000
      0.048    0.000
      0.050    0.000
      0.052    0.000
      0.054    0.000
      0.056    0.000
      0.058    0.000
      0.060    0.000
      0.062    0.000
      0.064    0.000
      0.066    0.000
      0.068    0.000
      0.070    0.000
      0.072    0.000
      0.074    0.000
      0.076    0.000
      0.078    0.000
      0.080    0.000
      0.082    0.000
      0.084    0.000
      0.086    0.000
      0.088    0.000
      0.090    0.000
      0.092    0.000
      0.094    0.000
      0.096    0.000
      0.098    0.000
      0.100    0.000
      0.102    0.000
      0.104    0.000
      0.106    0.000
      0.108    0.000
      0.110    0.000
      0.112    0.000
      0.114    0.000
      0.116    0.000
      0.118    0.000
      0.120    0.000
      0.122    0.000
      0.124    0.000
      0.126    0.000
      0.128    0.000
      0.130    0.000
      0.132    0.000
      0.134    0.000
      0.136    0.000
      0.138    0.000
      0.140    0.000
      0.142    0.000
      0.144    0.000
      0.146    0.001
      0.148    0.002
      0.150    0.005
      0.152    0.009
      0.154    0.017
      0.156    0.029
      0.158    0.046
      0.160    0.069
      0.162    0.098
      0.164    0.132
      0.166    0.171
      0.168    0.214
      0.170    0.259
      0.172    0.306
      0.174    0.352
      0.176    0.397
      0.178    0.440
      0.180    0.480
      0.182    0.518
      0.184    0.552
      0.186    0.583
      0.188    0.610
      0.190    0.635
      0.192    0.657
      0.194    0.676
      0.196    0.692
      0.198    0.707
      0.200    0.719
      0.202    0.730
      0.204    0.740
      0.206    0.748
      0.208    0.755
      0.210    0.761
      0.212    0.767
      0.214    0.771
      0.216    0.776
      0.218    0.779
      0.220    0.782
      0.222    0.785
      0.224    0.787
      0.226    0.789
      0.228    0.791
      0.230    0.793
      0.232    0.794
      0.234    0.796
      0.236    0.797
      0.238    0.798
      0.240    0.799
      0.242    0.800
      0.244    0.801
      0.246    0.801
      0.248    0.802
      0.250    0.803
      0.252    0.803
      0.254    0.804
      0.256    0.804
      0.258    0.805
      0.260    0.805
      0.262    0.806
      0.264    0.806
      0.266    0.807
      0.268    0.807
      0.270    0.808
      0.272    0.809
      0.274    0.810
      0.276    0.811
      0.278    0.813
      0.280    0.815
      0.282    0.819
      0.284    0.823
      0.286    0.828
      0.288    0.835
      0.290    0.843
      0.292    0.854
      0.294    0.868
      0.296    0.884
      0.298    0.904
      0.300    0.927
      0.302    0.953
      0.304    0.983
      0.306    1.015
      0.308    1.050
      0.310    1.087
      0.312    1.126
      0.314    1.165
      0.316    1.204
      0.318    1.243
      0.320    1.282
      0.322    1.319
      0.324    1.354
      0.326    1.387
      0.328    1.418
      0.330    1.447
      0.332    1.474
      0.334    1.498
      0.336    1.521
      0.338    1.541
      0.340    1.560
      0.342    1.577
      0.344    1.593
      0.346    1.607
      0.348    1.620
      0.350    1.633
      0.352    1.645
      0.354    1.656
      0.356    1.666
      0.358    1.677
      0.360    1.687
      0.362    1.696
      0.364    1.706
      0.366    1.716
      0.368    1.726
      0.370    1.736
      0.372    1.746
      0.374    1.756
      0.376    1.767
      0.378    1.777
      0.380    1.789
      0.382    1.800
      0.384    1.812
      0.386    1.825
      0.388    1.837
      0.390    1.851
      0.392    1.864
      0.394    1.879
      0.396    1.893
      0.398    1.908
      0.400    1.924
      0.402    1.940
      0.404    1.957
      0.406    1.974
      0.408    1.992
      0.410    2.011
      0.412    2.029
      0.414    2.049
      0.416    2.069
      0.418    2.089
      0.420    2.110
      0.422    2.131
      0.424    2.153
      0.426    2.175
      0.428    2.198
      0.430    2.221
      0.432    2.244
      0.434    2.268
      0.436    2.292
      0.438    2.317
      0.440    2.342
      0.442    2.368
      0.444    2.394
      0.446    2.420
      0.448    2.447
      0.450    2.474
      0.452    2.502
      0.454    2.530
      0.456    2.559
      0.458    2.588
      0.460    2.617
      0.462    2.647
      0.464    2.678
      0.466    2.709
      0.468    2.740
      0.470    2.773
      0.472    2.805
      0.474    2.839
      0.476    2.872
      0.478    2.907
      0.480    2.942
      0.482    2.978
      0.484    3.014
      0.486    3.051
      0.488    3.088
      0.490    3.127
      0.492    3.165
      0.494    3.205
      0.496    3.245
      0.498    3.286
      0.500    3.327
      0.502    3.369
      0.504    3.412
      0.506    3.455
      0.508    3.499
      0.510    3.543
      0.512    3.588
      0.514    3.634
      0.516    3.681
      0.518    3.727
      0.520    3.775
      0.522    3.823
      0.524    3.872
      0.526    3.921
      0.528    3.971
      0.530    4.021
      0.532    4.072
      0.534    4.123
      0.536    4.175
      0.538    4.227
      0.540    4.280
      0.542    4.333
      0.544    4.387
      0.546    4.442
      0.548    4.496
      0.550    4.552
      0.552    4.607
      0.554    4.664
      0.556    4.720
      0.558    4.777
      0.560    4.835
      0.562    4.893
      0.564    4.951
      0.566    5.010
      0.568    5.069
      0.570    5.129
      0.572    5.189
      0.574    5.250
      0.576    5.311
      0.578    5.373
      0.580    5.435
      0.582    5.498
      0.584    5.561
      0.586    5.624
      0.588    5.688
      0.590    5.752
      0.592    5.817
      0.594    5.883
      0.596    5.949
      0.598    6.015
      0.600    6.082
      0.602    6.150
      0.604    6.218
      0.606    6.287
      0.608    6.356
      0.610    6.426
      0.612    6.496
      0.614    6.567
      0.616    6.639
      0.618    6.711
      0.620    6.784
      0.622    6.858
      0.624    6.932
      0.626    7.006
      0.628    7.082
      0.630    7.158
      0.632    7.234
      0.634    7.312
      0.636    7.390
      0.638    7.468
      0.640    7.548
      0.642    7.627
      0.644    7.708
      0.646    7.789
      0.648    7.871
      0.650    7.953
      0.652    8.036
      0.654    8.120
      0.656    8.204
      0.658    8.289
      0.660    8.375
      0.662    8.461
      0.664    8.548
      0.666    8.635
      0.668    8.723
      0.670    8.811
      0.672    8.901
      0.674    8.990
      0.676    9.080
      0.678    9.171
      0.680    9.262
      0.682    9.354
      0.684    9.447
      0.686    9.540
      0.688    9.633
      0.690    9.727
      0.692    9.821
      0.694    9.916
      0.696   10.012
      0.698   10.107
      0.700   10.204
      0.702   10.300
      0.704   10.398
      0.706   10.496
      0.708   10.594
      0.710   10.692
      0.712   10.791
      0.714   10.891
      0.716   10.991
      0.718   11.091
      0.720   11.192
      0.722   11.293
      0.724   11.394
      0.726   11.497
      0.728   11.599
      0.730   11.702
      0.732   11.805
      0.734   11.908
      0.736   12.012
      0.738   12.117
      0.740   12.221
      0.742   12.326
      0.744   12.432
      0.746   12.538
      0.748   12.644
      0.750   12.751
      0.752   12.858
      0.754   12.965
      0.756   13.073
      0.758   13.181
      0.760   13.289
      0.762   13.398
      0.764   13.508
      0.766   13.617
      0.768   13.727
      0.770   13.837
      0.772   13.948
      0.774   14.059
      0.776   14.170
      0.778   14.282
      0.780   14.394
      0.782   14.507
      0.784   14.619
      0.786   14.733
      0.788   14.846
      0.790   14.960
      0.792   15.074
      0.794   15.189
      0.796   15.304
      0.798   15.419
      0.800   15.535
      0.802   15.651
      0.804   15.768
      0.806   15.884
      0.808   16.002
      0.810   16.120
      0.812   16.238
      0.814   16.356
      0.816   16.475
      0.818   16.595
      0.820   16.715
      0.822   16.835
      0.824   16.956
      0.826   17.077
      0.828   17.198
      0.830   17.321
      0.832   17.443
      0.834   17.566
      0.836   17.690
      0.838   17.814
      0.840   17.938
      0.842   18.063
      0.844   18.189
      0.846   18.315
      0.848   18.442
      0.850   18.569
      0.852   18.696
      0.854   18.825
      0.856   18.953
      0.858   19.083
      0.860   19.213
      0.862   19.343
      0.864   19.474
      0.866   19.606
      0.868   19.738
      0.870   19.870
      0.872   20.004
      0.874   20.138
      0.876   20.272
      0.878   20.407
      0.880   20.543
      0.882   20.680
      0.884   20.817
      0.886   20.954
      0.888   21.092
      0.890   21.231
      0.892   21.371
      0.894   21.511
      0.896   21.652
      0.898   21.793
      0.900   21.935
      0.902   22.078
      0.904   22.222
      0.906   22.365
      0.908   22.510
      0.910   22.655
      0.912   22.801
      0.914   22.948
      0.916   23.095
      0.918   23.243
      0.920   23.392
      0.922   23.541
      0.924   23.691
      0.926   23.842
      0.928   23.993
      0.930   24.145
      0.932   24.298
      0.934   24.451
      0.936   24.605
      0.938   24.760
      0.940   24.915
      0.942   25.071
      0.944   25.228
      0.946   25.385
      0.948   25.543
      0.950   25.702
      0.952   25.862
      0.954   26.022
      0.956   26.182
      0.958   26.344
      0.960   26.506
      0.962   26.669
      0.964   26.832
      0.966   26.996
      0.968   27.161
      0.970   27.327
      0.972   27.493
      0.974   27.660
      0.976   27.828
      0.978   27.996
      0.980   28.165
      0.982   28.335
      0.984   28.505
      0.986   28.676
      0.988   28.848
      0.990   29.021
      0.992   29.194
      0.994   29.368
      0.996   29.543
      0.998   29.718
      1.000   29.894
      1.002   30.071
      1.004   30.249
      1.006   30.427
      1.008   30.606
      1.010   30.786
      1.012   30.967
      1.014   31.148
      1.016   31.330
      1.018   31.513
      1.020   31.697
      1.022   31.881
      1.024   32.067
      1.026   32.253
      1.028   32.439
      1.030   32.627
      1.032   32.815
      1.034   33.004
      1.036   33.194
      1.038   33.385
      1.040   33.576
      1.042   33.769
      1.044   33.962
      1.046   34.156
      1.048   34.351
      1.050   34.546
      1.052   34.742
      1.054   34.940
      1.056   35.138
      1.058   35.336
      1.060   35.536
      1.062   35.737
      1.064   35.938
      1.066   36.140
      1.068   36.343
      1.070   36.547
      1.072   36.752
      1.074   36.957
      1.076   37.163
      1.078   37.371
      1.080   37.579
      1.082   37.788
      1.084   37.997
      1.086   38.208
      1.088   38.420
      1.090   38.632
      1.092   38.845
      1.094   39.059
      1.096   39.274
      1.098   39.490
      1.100   39.707
      1.102   39.924
      1.104   40.143
      1.106   40.362
      1.108   40.582
      1.110   40.803
      1.112   41.025
      1.114   41.248
      1.116   41.472
      1.118   41.696
      1.120   41.922
      1.122   42.148
      1.124   42.375
      1.126   42.603
      1.128   42.832
      1.130   43.062
      1.132   43.293
      1.134   43.524
      1.136   43.757
      1.138   43.990
      1.140   44.224
      1.142   44.459
      1.144   44.695
      1.146   44.932
      1.148   45.170
      1.150   45.408
      1.152   45.648
      1.154   45.888
      1.156   46.130
      1.158   46.372
      1.160   46.615
      1.162   46.859
      1.164   47.103
      1.166   47.349
      1.168   47.596
      1.170   47.843
      1.172   48.091
      1.174   48.340
      1.176   48.590
      1.178   48.841
      1.180   49.093
      1.182   49.345
      1.184   49.599
      1.186   49.853
      1.188   50.109
      1.190   50.365
      1.192   50.622
      1.194   50.880
      1.196   51.138
      1.198   51.398
      1.200   51.658
      1.202   51.920
      1.204   52.182
      1.206   52.445
      1.208   52.709
      1.210   52.974
      1.212   53.239
      1.214   53.506
      1.216   53.774
      1.218   54.042
      1.220   54.311
      1.222   54.581
      1.224   54.852
      1.226   55.124
      1.228   55.397
      1.230   55.670
      1.232   55.945
      1.234   56.220
      1.236   56.496
      1.238   56.774
      1.240   57.052
      1.242   57.331
      1.244   57.610
      1.246   57.891
      1.248   58.173
      1.250   58.455
      1.252   58.738
      1.254   59.023
      1.256   59.308
      1.258   59.594
      1.260   59.881
      1.262   60.168
      1.264   60.457
      1.266   60.747
      1.268   61.037
      1.270   61.328
      1.272   61.621
      1.274   61.914
      1.276   62.208
      1.278   62.503
      1.280   62.799
      1.282   63.095
      1.284   63.393
      1.286   63.692
      1.288   63.991
      1.290   64.291
      1.292   64.592
      1.294   64.895
      1.296   65.198
      1.298   65.501
      1.300   65.806
      1.302   66.112
      1.304   66.419
      1.306   66.726
      1.308   67.035
      1.310   67.344
      1.312   67.654
      1.314   67.965
      1.316   68.277
      1.318   68.590
      1.320   68.904
      1.322   69.219
      1.324   69.535
      1.326   69.852
      1.328   70.169
      1.330   70.487
      1.332   70.807
      1.334   71.127
      1.336   71.448
      1.338   71.770
      1.340   72.093
      1.342   72.417
      1.344   72.742
      1.346   73.068
      1.348   73.395
      1.350   73.723
      1.352   74.051
      1.354   74.381
      1.356   74.711
      1.358   75.043
      1.360   75.375
      1.362   75.709
      1.364   76.043
      1.366   76.378
      1.368   76.714
      1.370   77.051
      1.372   77.389
      1.374   77.728
      1.376   78.068
      1.378   78.409
      1.380   78.751
      1.382   79.094
      1.384   79.438
      1.386   79.783
      1.388   80.129
      1.390   80.475
      1.392   80.823
      1.394   81.172
      1.396   81.521
      1.398   81.872
      1.400   82.224
      1.402   82.576
      1.404   82.930
      1.406   83.285
      1.408   83.640
      1.410   83.997
      1.412   84.354
      1.414   84.713
      1.416   85.073
      1.418   85.433
      1.420   85.795
      1.422   86.158
      1.424   86.521
      1.426   86.886
      1.428   87.252
      1.430   87.618
      1.432   87.986
      1.434   88.355
      1.436   88.724
      1.438   89.095
      1.440   89.467
      1.442   89.840
      1.444   90.214
      1.446   90.589
      1.448   90.965
      1.450   91.342
      1.452   91.720
      1.454   92.099
      1.456   92.479
      1.458   92.860
      1.460   93.242
      1.462   93.626
      1.464   94.010
      1.466   94.395
      1.468   94.782
      1.470   95.169
      1.472   95.558
      1.474   95.948
      1.476   96.338
      1.478   96.730
      1.480   97.123
      1.482   97.517
      1.484   97.912
      1.486   98.308
      1.488   98.705
      1.490   99.103
      1.492   99.503
      1.494   99.903
      1.496  100.304
      1.498  100.707
      1.500  101.111
      1.502  101.515
      1.504  101.921
      1.506  102.328
      1.508  102.736
      1.510  103.145
      1.512  103.555
      1.514  103.967
      1.516  104.379
      1.518  104.793
      1.520  105.207
      1.522  105.623
      1.524  106.040
      1.526  106.457
      1.528  106.876
      1.530  107.297
      1.532  107.718
      1.534  108.140
      1.536  108.564
      1.538  108.988
      1.540  109.414
      1.542  109.841
      1.544  110.268
      1.546  110.697
      1.548  111.127
      1.550  111.559
      1.552  111.991
      1.554  112.425
      1.556  112.859
      1.558  113.295
      1.560  113.732
      1.562  114.170
      1.564  114.609
      1.566  115.049
      1.568  115.491
      1.570  115.933
      1.572  116.377
      1.574  116.822
      1.576  117.267
      1.578  117.714
      1.580  118.163
      1.582  118.612
      1.584  119.062
      1.586  119.514
      1.588  119.967
      1.590  120.421
      1.592  120.876
      1.594  121.332
      1.596  121.789
      1.598  122.248
      1.600  122.707
      1.602  123.168
      1.604  123.630
      1.606  124.093
      1.608  124.558
      1.610  125.023
      1.612  125.490
      1.614  125.957
      1.616  126.426
      1.618  126.896
      1.620  127.368
      1.622  127.840
      1.624  128.314
      1.626  128.789
      1.628  129.265
      1.630  129.742
      1.632  130.220
      1.634  130.700
      1.636  131.180
      1.638  131.662
      1.640  132.145
      1.642  132.630
      1.644  133.115
      1.646  133.602
      1.648  134.089
      1.650  134.578
      1.652  135.068
      1.654  135.560
      1.656  136.052
      1.658  136.546
      1.660  137.041
      1.662  137.537
      1.664  138.034
      1.666  138.533
      1.668  139.033
      1.670  139.534
      1.672  140.036
      1.674  140.540
      1.676  141.044
      1.678  141.550
      1.680  142.057
      1.682  142.565
      1.684  143.075
      1.686  143.585
      1.688  144.097
      1.690  144.610
      1.692  145.124
      1.694  145.640
      1.696  146.157
      1.698  146.675
      1.700  147.194
      1.702  147.714
      1.704  148.236
      1.706  148.759
      1.708  149.283
      1.710  149.808
      1.712  150.335
      1.714  150.862
      1.716  151.391
      1.718  151.922
      1.720  152.453
      1.722  152.986
      1.724  153.520
      1.726  154.055
      1.728  154.592
      1.730  155.130
      1.732  155.669
      1.734  156.209
      1.736  156.750
      1.738  157.293
      1.740  157.837
      1.742  158.382
      1.744  158.929
      1.746  159.476
      1.748  160.025
      1.750  160.576
      1.752  161.127
      1.754  161.680
      1.756  162.234
      1.758  162.789
      1.760  163.346
      1.762  163.903
      1.764  164.463
      1.766  165.023
      1.768  165.585
      1.770  166.148
      1.772  166.712
      1.774  167.277
      1.776  167.844
      1.778  168.412
      1.780  168.981
      1.782  169.552
      1.784  170.124
      1.786  170.697
      1.788  171.271
      1.790  171.847
      1.792  172.424
      1.794  173.002
      1.796  173.582
      1.798  174.163
      1.800  174.745
      1.802  175.328
      1.804  175.913
      1.806  176.499
      1.808  177.087
      1.810  177.675
      1.812  178.265
      1.814  178.857
      1.816  179.449
      1.818  180.043
      1.820  180.638
      1.822  181.235
      1.824  181.833
      1.826  182.432
      1.828  183.032
      1.830  183.634
      1.832  184.237
      1.834  184.842
      1.836  185.447
      1.838  186.054
      1.840  186.663
      1.842  187.272
      1.844  187.883
      1.846  188.496
      1.848  189.109
      1.850  189.724
      1.852  190.341
      1.854  190.958
      1.856  191.577
      1.858  192.198
      1.860  192.819
      1.862  193.442
      1.864  194.067
      1.866  194.692
      1.868  195.319
      1.870  195.948
      1.872  196.577
      1.874  197.208
      1.876  197.841
      1.878  198.474
      1.880  199.109
      1.882  199.746
      1.884  200.384
      1.886  201.023
      1.888  201.664
      1.890  202.306
      1.892  202.949
      1.894  203.593
      1.896  204.239
      1.898  204.887
      1.900  205.535
      1.902  206.186
      1.904  206.837
      1.906  207.490
      1.908  208.144
      1.910  208.800
      1.912  209.457
      1.914  210.115
      1.916  210.775
      1.918  211.436
      1.920  212.098
      1.922  212.762
      1.924  213.427
      1.926  214.094
      1.928  214.762
      1.930  215.431
      1.932  216.102
      1.934  216.774
      1.936  217.448
      1.938  218.123
      1.940  218.799
      1.942  219.477
      1.944  220.156
      1.946  220.837
      1.948  221.518
      1.950  222.202
      1.952  222.887
      1.954  223.573
      1.956  224.260
      1.958  224.949
      1.960  225.639
      1.962  226.331
      1.964  227.025
      1.966  227.719
      1.968  228.415
      1.970  229.113
      1.972  229.812
      1.974  230.512
      1.976  231.214
      1.978  231.917
      1.980  232.621
      1.982  233.327
      1.984  234.035
      1.986  234.744
      1.988  235.454
      1.990  236.166
      1.992  236.879
      1.994  237.593
      1.996  238.309
      1.998  239.026
      2.000  239.745
      2.002  240.466
      2.004  241.187
      2.006  241.911
      2.008  242.635
      2.010  243.361
      2.012  244.089
      2.014  244.818
      2.016  245.548
      2.018  246.280
      2.020  247.013
      2.022  247.748
      2.024  248.485
      2.026  249.222
      2.028  249.961
      2.030  250.702
      2.032  251.444
      2.034  252.188
      2.036  252.933
      2.038  253.679
      2.040  254.427
      2.042  255.176
      2.044  255.927
      2.046  256.680
      2.048  257.433
      2.050  258.189
      2.052  258.945
      2.054  259.704
      2.056  260.464
      2.058  261.225
      2.060  261.987
      2.062  262.751
      2.064  263.517
      2.066  264.284
      2.068  265.053
      2.070  265.823
      2.072  266.594
      2.074  267.367
      2.076  268.142
      2.078  268.918
      2.080  269.696
      2.082  270.475
      2.084  271.255
      2.086  272.037
      2.088  272.820
      2.090  273.605
      2.092  274.392
      2.094  275.180
      2.096  275.970
      2.098  276.761
      2.100  277.553
      2.102  278.347
      2.104  279.143
      2.106  279.940
      2.108  280.738
      2.110  281.538
      2.112  282.340
      2.114  283.143
      2.116  283.948
      2.118  284.754
      2.120  285.562
      2.122  286.371
      2.124  287.182
      2.126  287.994
      2.128  288.808
      2.130  289.623
      2.132  290.440
      2.134  291.258
      2.136  292.078
      2.138  292.899
      2.140  293.723
      2.142  294.547
      2.144  295.373
      2.146  296.201
      2.148  297.030
      2.150  297.861
      2.152  298.693
      2.154  299.527
      2.156  300.362
      2.158  301.198
      2.160  302.037
      2.162  302.877
      2.164  303.718
      2.166  304.561
      2.168  305.406
      2.170  306.252
      2.172  307.100
      2.174  307.949
      2.176  308.800
      2.178  309.652
      2.180  310.506
      2.182  311.361
      2.184  312.219
      2.186  313.077
      2.188  313.937
      2.190  314.799
      2.192  315.663
      2.194  316.528
      2.196  317.394
      2.198  318.262
      2.200  319.132
      2.202  320.003
      2.204  320.876
      2.206  321.750
      2.208  322.626
      2.210  323.504
      2.212  324.383
      2.214  325.264
      2.216  326.146
      2.218  327.030
      2.220  327.915
      2.222  328.803
      2.224  329.691
      2.226  330.582
      2.228  331.474
      2.230  332.367
      2.232  333.262
      2.234  334.159
      2.236  335.057
      2.238  335.957
      2.240  336.859
      2.242  337.762
      2.244  338.667
      2.246  339.573
      2.248  340.481
      2.250  341.391
      2.252  342.302
      2.254  343.215
      2.256  344.130
      2.258  345.046
      2.260  345.964
      2.262  346.883
      2.264  347.804
      2.266  348.726
      2.268  349.651
      2.270  350.577
      2.272  351.504
      2.274  352.433
      2.276  353.364
      2.278  354.297
      2.280  355.230
      2.282  356.166
      2.284  357.104
      2.286  358.043
      2.288  358.983
      2.290  359.926
      2.292  360.870
      2.294  361.815
      2.296  362.763
      2.298  363.711
      2.300  364.662
      2.302  365.614
      2.304  366.568
      2.306  367.524
      2.308  368.481
      2.310  369.440
      2.312  370.400
      2.314  371.363
      2.316  372.326
      2.318  373.292
      2.320  374.259
      2.322  375.228
      2.324  376.198
      2.326  377.171
      2.328  378.144
      2.330  379.120
      2.332  380.098
      2.334  381.076
      2.336  382.057
      2.338  383.039
      2.340  384.023
      2.342  385.009
      2.344  385.996
      2.346  386.985
      2.348  387.976
      2.350  388.968
      2.352  389.963
      2.354  390.958
      2.356  391.956
      2.358  392.955
      2.360  393.956
      2.362  394.959
      2.364  395.963
      2.366  396.969
      2.368  397.977
      2.370  398.986
      2.372  399.997
      2.374  401.010
      2.376  402.025
      2.378  403.041
      2.380  404.059
      2.382  405.079
      2.384  406.100
      2.386  407.124
      2.388  408.148
      2.390  409.175
      2.392  410.203
      2.394  411.233
      2.396  412.265
      2.398  413.299
      2.400  414.334
      2.402  415.371
      2.404  416.409
      2.406  417.450
      2.408  418.492
      2.410  419.536
      2.412  420.581
      2.414  421.629
      2.416  422.678
      2.418  423.729
      2.420  424.781
      2.422  425.836
      2.424  426.892
      2.426  427.949
      2.428  429.009
      2.430  430.070
      2.432  431.133
      2.434  432.198
      2.436  433.264
      2.438  434.333
      2.440  435.403
      2.442  436.475
      2.444  437.548
      2.446  438.624
      2.448  439.701
      2.450  440.780
      2.452  441.860
      2.454  442.943
      2.456  444.027
      2.458  445.113
      2.460  446.201
      2.462  447.290
      2.464  448.382
      2.466  449.475
      2.468  450.569
      2.470  451.666
      2.472  452.764
      2.474  453.864
      2.476  454.967
      2.478  456.070
      2.480  457.176
      2.482  458.283
      2.484  459.392
      2.486  460.503
      2.488  461.616
      2.490  462.730
      2.492  463.846
      2.494  464.964
      2.496  466.084
      2.498  467.205
      2.500  468.329
      2.502  469.454
      2.504  470.581
      2.506  471.710
      2.508  472.840
      2.510  473.973
      2.512  475.107
      2.514  476.243
      2.516  477.381
      2.518  478.521
      2.520  479.662
      2.522  480.805
      2.524  481.951
      2.526  483.098
      2.528  484.246
      2.530  485.397
      2.532  486.549
      2.534  487.703
      2.536  488.860
      2.538  490.017
      2.540  491.177
      2.542  492.338
      2.544  493.502
      2.546  494.667
      2.548  495.834
      2.550  497.003
      2.552  498.173
      2.554  499.346
      2.556  500.520
      2.558  501.696
      2.560  502.874
      2.562  504.053
      2.564  505.235
      2.566  506.419
      2.568  507.604
      2.570  508.791
      2.572  509.980
      2.574  511.171
      2.576  512.364
      2.578  513.558
      2.580  514.755
      2.582  515.954
      2.584  517.154
      2.586  518.356
      2.588  519.559
      2.590  520.765
      2.592  521.973
      2.594  523.182
      2.596  524.393
      2.598  525.607
      2.600  526.822
      2.602  528.039
      2.604  529.257
      2.606  530.478
      2.608  531.701
      2.610  532.925
      2.612  534.152
      2.614  535.380
      2.616  536.610
      2.618  537.842
      2.620  539.076
      2.622  540.311
      2.624  541.549
      2.626  542.789
      2.628  544.030
      2.630  545.273
      2.632  546.518
      2.634  547.765
      2.636  549.014
      2.638  550.265
      2.640  551.518
      2.642  552.772
      2.644  554.029
      2.646  555.287
      2.648  556.548
      2.650  557.810
      2.652  559.074
      2.654  560.340
      2.656  561.608
      2.658  562.878
      2.660  564.150
      2.662  565.423
      2.664  566.699
      2.666  567.976
      2.668  569.256
      2.670  570.537
      2.672  571.821
      2.674  573.106
      2.676  574.393
      2.678  575.682
      2.680  576.972
      2.682  578.265
      2.684  579.561
      2.686  580.857
      2.688  582.156
      2.690  583.456
      2.692  584.759
      2.694  586.063
      2.696  587.370
      2.698  588.678
      2.700  589.989
      2.702  591.301
      2.704  592.615
      2.706  593.931
      2.708  595.249
      2.710  596.569
      2.712  597.891
      2.714  599.215
      2.716  600.541
      2.718  601.868
      2.720  603.198
      2.722  604.530
      2.724  605.864
      2.726  607.199
      2.728  608.537
      2.730  609.876
      2.732  611.218
      2.734  612.561
      2.736  613.907
      2.738  615.254
      2.740  616.603
      2.742  617.955
      2.744  619.308
      2.746  620.663
      2.748  622.021
      2.750  623.380
      2.752  624.741
      2.754  626.104
      2.756  627.470
      2.758  628.837
      2.760  630.206
      2.762  631.577
      2.764  632.950
      2.766  634.326
      2.768  635.702
      2.770  637.081
      2.772  638.463
      2.774  639.846
      2.776  641.231
      2.778  642.618
      2.780  644.007
      2.782  645.398
      2.784  646.791
      2.786  648.186
      2.788  649.583
      2.790  650.982
      2.792  652.383
      2.794  653.787
      2.796  655.192
      2.798  656.599
      2.800  658.008
      2.802  659.419
      2.804  660.832
      2.806  662.247
      2.808  663.664
      2.810  665.084
      2.812  666.505
      2.814  667.928
      2.816  669.354
      2.818  670.781
      2.820  672.210
      2.822  673.642
      2.824  675.075
      2.826  676.511
      2.828  677.948
      2.830  679.387
      2.832  680.829
      2.834  682.272
      2.836  683.718
      2.838  685.166
      2.840  686.616
      2.842  688.067
      2.844  689.521
      2.846  690.977
      2.848  692.435
      2.850  693.895
      2.852  695.357
      2.854  696.821
      2.856  698.287
      2.858  699.755
      2.860  701.225
      2.862  702.698
      2.864  704.172
      2.866  705.648
      2.868  707.127
      2.870  708.607
      2.872  710.090
      2.874  711.574
      2.876  713.061
      2.878  714.550
      2.880  716.041
      2.882  717.534
      2.884  719.029
      2.886  720.526
      2.888  722.025
      2.890  723.526
      2.892  725.029
      2.894  726.535
      2.896  728.042
      2.898  729.552
      2.900  731.064
      2.902  732.577
      2.904  734.093
      2.906  735.611
      2.908  737.131
      2.910  738.653
      2.912  740.178
      2.914  741.704
      2.916  743.232
      2.918  744.763
      2.920  746.295
      2.922  747.830
      2.924  749.367
      2.926  750.906
      2.928  752.447
      2.930  753.990
      2.932  755.535
      2.934  757.083
      2.936  758.632
      2.938  760.183
      2.940  761.737
      2.942  763.293
      2.944  764.851
      2.946  766.411
      2.948  767.973
      2.950  769.538
      2.952  771.104
      2.954  772.672
      2.956  774.243
      2.958  775.816
      2.960  777.391
      2.962  778.968
      2.964  780.547
      2.966  782.128
      2.968  783.712
      2.970  785.297
      2.972  786.885
      2.974  788.476
      2.976  790.068
      2.978  791.662
      2.980  793.258
      2.982  794.856
      2.984  796.457
      2.986  798.060
      2.988  799.665
      2.990  801.272
      2.992  802.881
      2.994  804.492
      2.996  806.106
      2.998  807.721
      3.000  809.339
      3.002  810.959
      3.004  812.581
      3.006  814.206
      3.008  815.832
      3.010  817.461
      3.012  819.092
      3.014  820.725
      3.016  822.360
      3.018  823.997
      3.020  825.637
      3.022  827.278
      3.024  828.922
      3.026  830.568
      3.028  832.216
      3.030  833.866
      3.032  835.519
      3.034  837.174
      3.036  838.831
      3.038  840.489
      3.040  842.151
      3.042  843.814
      3.044  845.480
      3.046  847.148
      3.048  848.818
      3.050  850.490
      3.052  852.165
      3.054  853.841
      3.056  855.520
      3.058  857.201
      3.060  858.884
      3.062  860.569
      3.064  862.257
      3.066  863.947
      3.068  865.639
      3.070  867.333
      3.072  869.030
      3.074  870.728
      3.076  872.429
      3.078  874.132
      3.080  875.837
      3.082  877.545
      3.084  879.254
      3.086  880.966
      3.088  882.680
      3.090  884.397
      3.092  886.115
      3.094  887.836
      3.096  889.559
      3.098  891.285
      3.100  893.012
      3.102  894.741
      3.104  896.473
      3.106  898.208
      3.108  899.944
      3.110  901.683
      3.112  903.424
      3.114  905.167
      3.116  906.912
      3.118  908.660
      3.120  910.410
      3.122  912.162
      3.124  913.916
      3.126  915.673
      3.128  917.432
      3.130  919.193
      3.132  920.956
      3.134  922.722
      3.136  924.490
      3.138  926.260
      3.140  928.032
      3.142  929.807
      3.144  931.584
      3.146  933.363
      3.148  935.144
      3.150  936.928
      3.152  938.714
      3.154  940.502
      3.156  942.292
      3.158  944.085
      3.160  945.880
      3.162  947.678
      3.164  949.477
      3.166  951.279
      3.168  953.083
      3.170  954.889
      3.172  956.698
      3.174  958.509
      3.176  960.322
      3.178  962.138
      3.180  963.956
      3.182  965.776
      3.184  967.598
      3.186  969.423
      3.188  971.250
      3.190  973.079
      3.192  974.910
      3.194  976.744
      3.196  978.580
      3.198  980.419
      3.200  982.260
      3.202  984.102
      3.204  985.948
      3.206  987.796
      3.208  989.646
      3.210  991.498
      3.212  993.352
      3.214  995.209
      3.216  997.068
      3.218  998.930
      3.220 1000.794
      3.222 1002.660
      3.224 1004.528
      3.226 1006.399
      3.228 1008.272
      3.230 1010.148
      3.232 1012.025
      3.234 1013.905
      3.236 1015.788
      3.238 1017.672
      3.240 1019.559
      3.242 1021.448
      3.244 1023.340
      3.246 1025.234
      3.248 1027.131
      3.250 1029.029
      3.252 1030.930
      3.254 1032.834
      3.256 1034.740
      3.258 1036.647
      3.260 1038.558
      3.262 1040.470
      3.264 1042.386
      3.266 1044.303
      3.268 1046.223
      3.270 1048.145
      3.272 1050.070
      3.274 1051.996
      3.276 1053.926
      3.278 1055.857
      3.280 1057.791
      3.282 1059.728
      3.284 1061.666
      3.286 1063.607
      3.288 1065.550
      3.290 1067.496
      3.292 1069.444
      3.294 1071.395
      3.296 1073.348
      3.298 1075.302
      3.300 1077.260
      3.302 1079.220
      3.304 1081.183
      3.306 1083.147
      3.308 1085.114
      3.310 1087.084
      3.312 1089.056
      3.314 1091.030
      3.316 1093.007
      3.318 1094.986
      3.320 1096.967
      3.322 1098.951
      3.324 1100.937
      3.326 1102.926
      3.328 1104.917
      3.330 1106.910
      3.332 1108.906
      3.334 1110.904
      3.336 1112.905
      3.338 1114.908
      3.340 1116.913
      3.342 1118.921
      3.344 1120.931
      3.346 1122.943
      3.348 1124.958
      3.350 1126.976
      3.352 1128.996
      3.354 1131.018
      3.356 1133.043
      3.358 1135.070
      3.360 1137.099
      3.362 1139.131
      3.364 1141.165
      3.366 1143.202
      3.368 1145.241
      3.370 1147.283
      3.372 1149.327
      3.374 1151.373
      3.376 1153.422
      3.378 1155.473
      3.380 1157.527
      3.382 1159.583
      3.384 1161.642
      3.386 1163.702
      3.388 1165.766
      3.390 1167.832
      3.392 1169.900
      3.394 1171.971
      3.396 1174.044
      3.398 1176.120
      3.400 1178.198
      3.402 1180.279
      3.404 1182.362
      3.406 1184.447
      3.408 1186.535
      3.410 1188.626
      3.412 1190.718
      3.414 1192.813
      3.416 1194.911
      3.418 1197.011
      3.420 1199.114
      3.422 1201.219
      3.424 1203.327
      3.426 1205.436
      3.428 1207.549
      3.430 1209.664
      3.432 1211.781
      3.434 1213.901
      3.436 1216.024
      3.438 1218.149
      3.440 1220.276
      3.442 1222.405
      3.444 1224.538
      3.446 1226.672
      3.448 1228.810
      3.450 1230.949
      3.452 1233.091
      3.454 1235.236
      3.456 1237.383
      3.458 1239.533
      3.460 1241.685
      3.462 1243.840
      3.464 1245.997
      3.466 1248.156
      3.468 1250.318
      3.470 1252.483
      3.472 1254.650
      3.474 1256.819
      3.476 1258.991
      3.478 1261.166
      3.480 1263.343
      3.482 1265.522
      3.484 1267.705
      3.486 1269.889
      3.488 1272.076
      3.490 1274.266
      3.492 1276.458
      3.494 1278.653
      3.496 1280.850
      3.498 1283.049
      3.500 1285.251
      3.502 1287.456
      3.504 1289.663
      3.506 1291.874
      3.508 1294.085
      3.510 1296.300
      3.512 1298.518
      3.514 1300.738
      3.516 1302.960
      3.518 1305.184
      3.520 1307.412
      3.522 1309.642
      3.524 1311.874
      3.526 1314.109
      3.528 1316.347
      3.530 1318.587
      3.532 1320.830
      3.534 1323.075
      3.536 1325.323
      3.538 1327.573
      3.540 1329.826
      3.542 1332.081
      3.544 1334.339
      3.546 1336.599
      3.548 1338.862
      3.550 1341.128
      3.552 1343.397
      3.554 1345.667
      3.556 1347.940
      3.558 1350.216
      3.560 1352.494
      3.562 1354.775
      3.564 1357.058
      3.566 1359.345
      3.568 1361.633
      3.570 1363.924
      3.572 1366.218
      3.574 1368.514
      3.576 1370.813
      3.578 1373.115
      3.580 1375.418
      3.582 1377.725
      3.584 1380.035
      3.586 1382.346
      3.588 1384.661
      3.590 1386.977
      3.592 1389.297
      3.594 1391.619
      3.596 1393.944
      3.598 1396.271
      3.600 1398.600
      3.602 1400.933
      3.604 1403.268
      3.606 1405.605
      3.608 1407.946
      3.610 1410.288
      3.612 1412.634
      3.614 1414.982
      3.616 1417.332
      3.618 1419.686
      3.620 1422.041
      3.622 1424.400
      3.624 1426.761
      3.626 1429.124
      3.628 1431.491
      3.630 1433.859
      3.632 1436.231
      3.634 1438.605
      3.636 1440.981
      3.638 1443.361
      3.640 1445.742
      3.642 1448.127
      3.644 1450.514
      3.646 1452.904
      3.648 1455.296
      3.650 1457.691
      3.652 1460.089
      3.654 1462.489
      3.656 1464.892
      3.658 1467.297
      3.660 1469.705
      3.662 1472.116
      3.664 1474.530
      3.666 1476.946
      3.668 1479.364
      3.670 1481.785
      3.672 1484.209
      3.674 1486.636
      3.676 1489.065
      3.678 1491.498
      3.680 1493.932
      3.682 1496.369
      3.684 1498.809
      3.686 1501.251
      3.688 1503.697
      3.690 1506.145
      3.692 1508.595
      3.694 1511.048
      3.696 1513.504
      3.698 1515.962
      3.700 1518.424
      3.702 1520.887
      3.704 1523.353
      3.706 1525.823
      3.708 1528.294
      3.710 1530.769
      3.712 1533.246
      3.714 1535.726
      3.716 1538.208
      3.718 1540.693
      3.720 1543.181
      3.722 1545.671
      3.724 1548.164
      3.726 1550.660
      3.728 1553.159
      3.730 1555.660
      3.732 1558.164
      3.734 1560.670
      3.736 1563.180
      3.738 1565.691
      3.740 1568.206
      3.742 1570.723
      3.744 1573.243
      3.746 1575.766
      3.748 1578.292
      3.750 1580.820
      3.752 1583.351
      3.754 1585.884
      3.756 1588.420
      3.758 1590.959
      3.760 1593.501
      3.762 1596.045
      3.764 1598.592
      3.766 1601.142
      3.768 1603.694
      3.770 1606.249
      3.772 1608.807
      3.774 1611.368
      3.776 1613.931
      3.778 1616.497
      3.780 1619.066
      3.782 1621.637
      3.784 1624.211
      3.786 1626.788
      3.788 1629.368
      3.790 1631.950
      3.792 1634.536
      3.794 1637.123
      3.796 1639.713
      3.798 1642.307
      3.800 1644.903
      3.802 1647.501
      3.804 1650.102
      3.806 1652.707
      3.808 1655.314
      3.810 1657.924
      3.812 1660.536
      3.814 1663.151
      3.816 1665.770
      3.818 1668.390
      3.820 1671.013
      3.822 1673.640
      3.824 1676.269
      3.826 1678.900
      3.828 1681.535
      3.830 1684.172
      3.832 1686.812
      3.834 1689.455
      3.836 1692.100
      3.838 1694.748
      3.840 1697.399
      3.842 1700.053
      3.844 1702.709
      3.846 1705.369
      3.848 1708.031
      3.850 1710.695
      3.852 1713.363
      3.854 1716.033
      3.856 1718.706
      3.858 1721.382
      3.860 1724.061
      3.862 1726.742
      3.864 1729.427
      3.866 1732.113
      3.868 1734.803
      3.870 1737.495
      3.872 1740.191
      3.874 1742.889
      3.876 1745.590
      3.878 1748.294
      3.880 1751.000
      3.882 1753.709
      3.884 1756.421
      3.886 1759.136
      3.888 1761.854
      3.890 1764.574
      3.892 1767.298
      3.894 1770.024
      3.896 1772.752
      3.898 1775.484
      3.900 1778.218
      3.902 1780.955
      3.904 1783.695
      3.906 1786.438
      3.908 1789.184
      3.910 1791.932
      3.912 1794.684
      3.914 1797.438
      3.916 1800.194
      3.918 1802.954
      3.920 1805.717
      3.922 1808.482
      3.924 1811.250
      3.926 1814.021
      3.928 1816.795
      3.930 1819.572
      3.932 1822.352
      3.934 1825.134
      3.936 1827.919
      3.938 1830.707
      3.940 1833.498
      3.942 1836.292
      3.944 1839.088
      3.946 1841.887
      3.948 1844.689
      3.950 1847.494
      3.952 1850.301
      3.954 1853.112
      3.956 1855.926
      3.958 1858.742
      3.960 1861.561
      3.962 1864.383
      3.964 1867.208
      3.966 1870.036
      3.968 1872.867
      3.970 1875.700
      3.972 1878.536
      3.974 1881.376
      3.976 1884.218
      3.978 1887.062
      3.980 1889.910
      3.982 1892.761
      3.984 1895.614
      3.986 1898.471
      3.988 1901.330
      3.990 1904.192
      3.992 1907.057
      3.994 1909.925
      3.996 1912.796
      3.998 1915.669
      4.000 1918.546
      4.002 1921.425
      4.004 1924.307
      4.006 1927.193
      4.008 1930.080
      4.010 1932.971
      4.012 1935.865
      4.014 1938.762
      4.016 1941.661
      4.018 1944.563
      4.020 1947.469
      4.022 1950.377
      4.024 1953.288
      4.026 1956.203
      4.028 1959.119
      4.030 1962.038
      4.032 1964.962
      4.034 1967.887
      4.036 1970.815
      4.038 1973.747
      4.040 1976.681
      4.042 1979.618
      4.044 1982.558
      4.046 1985.502
      4.048 1988.447
      4.050 1991.396
      4.052 1994.348
      4.054 1997.302
      4.056 2000.260
      4.058 2003.221
      4.060 2006.184
      4.062 2009.151
      4.064 2012.120
      4.066 2015.092
      4.068 2018.067
      4.070 2021.045
      4.072 2024.026
      4.074 2027.010
      4.076 2029.996
      4.078 2032.987
      4.080 2035.979
      4.082 2038.975
      4.084 2041.974
      4.086 2044.975
      4.088 2047.979
      4.090 2050.986
      4.092 2053.997
      4.094 2057.010
      4.096 2060.026
      4.098 2063.045
      4.100 2066.067
      4.102 2069.092
      4.104 2072.120
      4.106 2075.151
      4.108 2078.185
      4.110 2081.221
      4.112 2084.262
      4.114 2087.304
      4.116 2090.350
      4.118 2093.398
      4.120 2096.450
      4.122 2099.504
      4.124 2102.562
      4.126 2105.623
      4.128 2108.687
      4.130 2111.753
      4.132 2114.823
      4.134 2117.895
      4.136 2120.970
      4.138 2124.048
      4.140 2127.130
      4.142 2130.214
      4.144 2133.301
      4.146 2136.392
      4.148 2139.485
      4.150 2142.581
      4.152 2145.681
      4.154 2148.783
      4.156 2151.888
      4.158 2154.997
      4.160 2158.107
      4.162 2161.221
      4.164 2164.339
      4.166 2167.459
      4.168 2170.582
      4.170 2173.708
      4.172 2176.838
      4.174 2179.970
      4.176 2183.104
      4.178 2186.243
      4.180 2189.384
      4.182 2192.528
      4.184 2195.675
      4.186 2198.826
      4.188 2201.979
      4.190 2205.135
      4.192 2208.295
      4.194 2211.457
      4.196 2214.622
      4.198 2217.791
      4.200 2220.962
      4.202 2224.136
      4.204 2227.314
      4.206 2230.494
      4.208 2233.677
      4.210 2236.864
      4.212 2240.054
      4.214 2243.246
      4.216 2246.442
      4.218 2249.641
      4.220 2252.842
      4.222 2256.046
      4.224 2259.255
      4.226 2262.466
      4.228 2265.679
      4.230 2268.896
      4.232 2272.116
      4.234 2275.338
      4.236 2278.564
      4.238 2281.794
      4.240 2285.025
      4.242 2288.260
      4.244 2291.500
      4.246 2294.740
      4.248 2297.984
      4.250 2301.232
      4.252 2304.483
      4.254 2307.735
      4.256 2310.992
      4.258 2314.252
      4.260 2317.515
      4.262 2320.780
      4.264 2324.049
      4.266 2327.321
      4.268 2330.596
      4.270 2333.874
      4.272 2337.155
      4.274 2340.439
      4.276 2343.726
      4.278 2347.017
      4.280 2350.310
      4.282 2353.607
      4.284 2356.907
      4.286 2360.209
      4.288 2363.515
      4.290 2366.824
      4.292 2370.135
      4.294 2373.451
      4.296 2376.769
      4.298 2380.090
      4.300 2383.414
      4.302 2386.741
      4.304 2390.072
      4.306 2393.406
      4.308 2396.742
      4.310 2400.082
      4.312 2403.425
      4.314 2406.770
      4.316 2410.120
      4.318 2413.472
      4.320 2416.827
      4.322 2420.185
      4.324 2423.547
      4.326 2426.911
      4.328 2430.279
      4.330 2433.650
      4.332 2437.024
      4.334 2440.400
      4.336 2443.781
      4.338 2447.164
      4.340 2450.551
      4.342 2453.940
      4.344 2457.333
      4.346 2460.728
      4.348 2464.127
      4.350 2467.530
      4.352 2470.935
      4.354 2474.343
      4.356 2477.755
      4.358 2481.169
      4.360 2484.587
      4.362 2488.008
      4.364 2491.432
      4.366 2494.859
      4.368 2498.289
      4.370 2501.723
      4.372 2505.159
      4.374 2508.599
      4.376 2512.042
      4.378 2515.488
      4.380 2518.937
      4.382 2522.390
      4.384 2525.845
      4.386 2529.303
      4.388 2532.766
      4.390 2536.230
      4.392 2539.698
      4.394 2543.169
      4.396 2546.644
      4.398 2550.122
      4.400 2553.602
      4.402 2557.087
      4.404 2560.574
      4.406 2564.063
      4.408 2567.558
      4.410 2571.054
      4.412 2574.553
      4.414 2578.056
      4.416 2581.563
      4.418 2585.072
      4.420 2588.584
      4.422 2592.100
      4.424 2595.619
      4.426 2599.141
      4.428 2602.667
      4.430 2606.195
      4.432 2609.726
      4.434 2613.261
      4.436 2616.799
      4.438 2620.340
      4.440 2623.884
      4.442 2627.432
      4.444 2630.983
      4.446 2634.536
      4.448 2638.094
      4.450 2641.654
      4.452 2645.217
      4.454 2648.785
      4.456 2652.354
      4.458 2655.927
      4.460 2659.503
      4.462 2663.083
      4.464 2666.666
      4.466 2670.251
      4.468 2673.841
      4.470 2677.434
      4.472 2681.029
      4.474 2684.628
      4.476 2688.230
      4.478 2691.835
      4.480 2695.444
      4.482 2699.055
      4.484 2702.670
      4.486 2706.288
      4.488 2709.910
      4.490 2713.534
      4.492 2717.162
      4.494 2720.793
      4.496 2724.428
      4.498 2728.065
      4.500 2731.707
      4.502 2735.350
      4.504 2738.997
      4.506 2742.648
      4.508 2746.302
      4.510 2749.959
      4.512 2753.618
      4.514 2757.282
      4.516 2760.949
      4.518 2764.619
      4.520 2768.293
      4.522 2771.969
      4.524 2775.648
      4.526 2779.333
      4.528 2783.018
      4.530 2786.707
      4.532 2790.399
      4.534 2794.096
      4.536 2797.795
      4.538 2801.498
      4.540 2805.204
      4.542 2808.912
      4.544 2812.625
      4.546 2816.341
      4.548 2820.060
      4.550 2823.782
      4.552 2827.507
      4.554 2831.236
      4.556 2834.968
      4.558 2838.703
      4.560 2842.442
      4.562 2846.183
      4.564 2849.928
      4.566 2853.677
      4.568 2857.428
      4.570 2861.183
      4.572 2864.942
      4.574 2868.703
      4.576 2872.468
      4.578 2876.236
      4.580 2880.007
      4.582 2883.782
      4.584 2887.560
      4.586 2891.341
      4.588 2895.126
      4.590 2898.913
      4.592 2902.705
      4.594 2906.499
      4.596 2910.297
      4.598 2914.097
      4.600 2917.902
      4.602 2921.710
      4.604 2925.520
      4.606 2929.335
      4.608 2933.153
      4.610 2936.973
      4.612 2940.798
      4.614 2944.625
      4.616 2948.456
      4.618 2952.291
      4.620 2956.128
      4.622 2959.969
      4.624 2963.813
      4.626 2967.661
      4.628 2971.512
      4.630 2975.365
      4.632 2979.224
      4.634 2983.085
      4.636 2986.948
      4.638 2990.817
      4.640 2994.687
      4.642 2998.561
      4.644 3002.438
      4.646 3006.320
      4.648 3010.204
      4.650 3014.091
      4.652 3017.983
      4.654 3021.877
      4.656 3025.774
      4.658 3029.676
      4.660 3033.580
      4.662 3037.487
      4.664 3041.399
      4.666 3045.313
      4.668 3049.230
      4.670 3053.151
      4.672 3057.076
      4.674 3061.004
      4.676 3064.934
      4.678 3068.870
      4.680 3072.807
      4.682 3076.748
      4.684 3080.694
      4.686 3084.641
      4.688 3088.593
      4.690 3092.547
      4.692 3096.506
      4.694 3100.467
      4.696 3104.431
      4.698 3108.400
      4.700 3112.372
      4.702 3116.347
      4.704 3120.325
      4.706 3124.307
      4.708 3128.292
      4.710 3132.281
      4.712 3136.272
      4.714 3140.267
      4.716 3144.266
      4.718 3148.269
      4.720 3152.273
      4.722 3156.282
      4.724 3160.295
      4.726 3164.311
      4.728 3168.329
      4.730 3172.353
      4.732 3176.378
      4.734 3180.407
      4.736 3184.439
      4.738 3188.476
      4.740 3192.515
      4.742 3196.558
      4.744 3200.605
      4.746 3204.654
      4.748 3208.707
      4.750 3212.764
      4.752 3216.824
      4.754 3220.887
      4.756 3224.955
      4.758 3229.025
      4.760 3233.098
      4.762 3237.175
      4.764 3241.256
      4.766 3245.340
      4.768 3249.427
      4.770 3253.518
      4.772 3257.613
      4.774 3261.710
      4.776 3265.812
      4.778 3269.916
      4.780 3274.024
      4.782 3278.135
      4.784 3282.250
      4.786 3286.369
      4.788 3290.490
      4.790 3294.616
      4.792 3298.745
      4.794 3302.876
      4.796 3307.013
      4.798 3311.151
      4.800 3315.294
      4.802 3319.440
      4.804 3323.590
      4.806 3327.742
      4.808 3331.898
      4.810 3336.058
      4.812 3340.221
      4.814 3344.388
      4.816 3348.559
      4.818 3352.732
      4.820 3356.909
      4.822 3361.090
      4.824 3365.274
      4.826 3369.461
      4.828 3373.652
      4.830 3377.847
      4.832 3382.045
      4.834 3386.246
      4.836 3390.451
      4.838 3394.659
      4.840 3398.871
      4.842 3403.087
      4.844 3407.305
      4.846 3411.527
      4.848 3415.754
      4.850 3419.983
      4.852 3424.215
      4.854 3428.451
      4.856 3432.692
      4.858 3436.935
      4.860 3441.181
      4.862 3445.432
      4.864 3449.685
      4.866 3453.942
      4.868 3458.204
      4.870 3462.468
      4.872 3466.735
      4.874 3471.006
      4.876 3475.282
      4.878 3479.560
      4.880 3483.841
      4.882 3488.127
      4.884 3492.415
      4.886 3496.707
      4.888 3501.003
      4.890 3505.302
      4.892 3509.605
      4.894 3513.912
      4.896 3518.222
      4.898 3522.535
      4.900 3526.852
      4.902 3531.173
      4.904 3535.497
      4.906 3539.824
      4.908 3544.155
      4.910 3548.490
      4.912 3552.828
      4.914 3557.170
      4.916 3561.515
      4.918 3565.863
      4.920 3570.215
      4.922 3574.572
      4.924 3578.930
      4.926 3583.293
      4.928 3587.660
      4.930 3592.029
      4.932 3596.403
      4.934 3600.781
      4.936 3605.162
      4.938 3609.545
      4.940 3613.934
      4.942 3618.325
      4.944 3622.719
      4.946 3627.118
      4.948 3631.520
      4.950 3635.925
