# This file was created Fri Mar  1 08:35:52 2024
# Created by:
#                       :-) GROMACS - gmx saxs, 2023.3 (-:
# 
# Executable:   /opt/dev/Framework/gromacs-2023.3-intel/bin/gmx_mpi
# Data prefix:  /opt/dev/Framework/gromacs-2023.3-intel
# Working dir:  /scratchbeta/dorchies/2082149.mesu2
# Command line:
#   gmx_mpi saxs -f traj_last_2ns.xtc -s topol.tpr -n index.ndx -startq 0.6 -endq 30 -energy 16 -sq saxs_2ns_DMF_qN_0p04-5M-H2O-0p1M-LiClO4-reduced-charges.xvg
# gmx saxs is part of G R O M A C S:
#
# Great Red Oystrich Makes All Chemists Sane
#
@    title "Scattering Intensity"
@    xaxis  label "q (1/nm)"
@    yaxis  label "Intensity (a.u.)"
@TYPE xy
   0.62831       1.91341 
   1.25662       2.04786 
   1.88493       2.13439 
   2.51325       2.22125 
   3.14156       2.29828 
   3.76987       2.41290 
   4.39818       2.58424 
   5.02649       2.79279 
   5.65480       3.07906 
   6.28312       3.44767 
   6.91143       3.88107 
   7.53974       4.36293 
   8.16805       4.99576 
   8.79636       5.84283 
   9.42467       6.79394 
  10.05299       8.08802 
  10.68130       9.97404 
  11.30961      12.66945 
  11.93792      16.20867 
  12.56623      20.70719 
  13.19454      25.77699 
  13.82286      28.86097 
  14.45117      29.15032 
  15.07948      27.19339 
  15.70779      24.30540 
  16.33610      21.52685 
  16.96441      19.12684 
  17.59273      17.20698 
  18.22104      15.74732 
  18.84935      14.52597 
  19.47766      13.48645 
  20.10597      12.51104 
  20.73428      11.53139 
  21.36260      10.53168 
  21.99091       9.54765 
  22.61922       8.60367 
  23.24753       7.75806 
  23.87584       7.06206 
  24.50415       6.50499 
  25.13247       6.08410 
  25.76078       5.76547 
  26.38909       5.52427 
  27.01740       5.34832 
  27.64571       5.21920 
  28.27402       5.12736 
  28.90234       5.05003 
  29.53065       4.98550 
