# This file was created Mon Feb 26 03:04:02 2024
# Created by:
#                       :-) GROMACS - gmx rdf, 2023.3 (-:
# 
# Executable:   /opt/dev/Framework/gromacs-2023.3-intel/bin/gmx_mpi
# Data prefix:  /opt/dev/Framework/gromacs-2023.3-intel
# Working dir:  /scratchbeta/dorchies/2081641.mesu2
# Command line:
#   gmx_mpi rdf -f traj_comp.part0002.xtc -n index.ndx -ref 10 -sel 10 -o rdf_O_water-O_water.xvg -cn cn_O_water-O_water.xvg
# gmx rdf is part of G R O M A C S:
#
# Good gRace! Old Maple Actually Chews Slate
#
@    title "Radial distribution"
@    xaxis  label "r (nm)"
@    yaxis  label "g(r)"
@TYPE xy
@ subtitle "reference SOL_&_O*"
@ view 0.15, 0.15, 0.75, 0.85
@ legend on
@ legend box on
@ legend loctype view
@ legend 0.78, 0.8
@ legend length 2
@ s0 legend "SOL_&_O*"
      0.000    0.000
      0.002    0.000
      0.004    0.000
      0.006    0.000
      0.008    0.000
      0.010    0.000
      0.012    0.000
      0.014    0.000
      0.016    0.000
      0.018    0.000
      0.020    0.000
      0.022    0.000
      0.024    0.000
      0.026    0.000
      0.028    0.000
      0.030    0.000
      0.032    0.000
      0.034    0.000
      0.036    0.000
      0.038    0.000
      0.040    0.000
      0.042    0.000
      0.044    0.000
      0.046    0.000
      0.048    0.000
      0.050    0.000
      0.052    0.000
      0.054    0.000
      0.056    0.000
      0.058    0.000
      0.060    0.000
      0.062    0.000
      0.064    0.000
      0.066    0.000
      0.068    0.000
      0.070    0.000
      0.072    0.000
      0.074    0.000
      0.076    0.000
      0.078    0.000
      0.080    0.000
      0.082    0.000
      0.084    0.000
      0.086    0.000
      0.088    0.000
      0.090    0.000
      0.092    0.000
      0.094    0.000
      0.096    0.000
      0.098    0.000
      0.100    0.000
      0.102    0.000
      0.104    0.000
      0.106    0.000
      0.108    0.000
      0.110    0.000
      0.112    0.000
      0.114    0.000
      0.116    0.000
      0.118    0.000
      0.120    0.000
      0.122    0.000
      0.124    0.000
      0.126    0.000
      0.128    0.000
      0.130    0.000
      0.132    0.000
      0.134    0.000
      0.136    0.000
      0.138    0.000
      0.140    0.000
      0.142    0.000
      0.144    0.000
      0.146    0.000
      0.148    0.000
      0.150    0.000
      0.152    0.000
      0.154    0.000
      0.156    0.000
      0.158    0.000
      0.160    0.000
      0.162    0.000
      0.164    0.000
      0.166    0.000
      0.168    0.000
      0.170    0.000
      0.172    0.000
      0.174    0.000
      0.176    0.000
      0.178    0.000
      0.180    0.000
      0.182    0.000
      0.184    0.000
      0.186    0.000
      0.188    0.000
      0.190    0.000
      0.192    0.000
      0.194    0.000
      0.196    0.000
      0.198    0.000
      0.200    0.000
      0.202    0.000
      0.204    0.000
      0.206    0.000
      0.208    0.000
      0.210    0.000
      0.212    0.000
      0.214    0.000
      0.216    0.000
      0.218    0.000
      0.220    0.000
      0.222    0.000
      0.224    0.000
      0.226    0.000
      0.228    0.000
      0.230    0.000
      0.232    0.000
      0.234    0.000
      0.236    0.000
      0.238    0.000
      0.240    0.001
      0.242    0.006
      0.244    0.022
      0.246    0.074
      0.248    0.208
      0.250    0.501
      0.252    1.063
      0.254    2.003
      0.256    3.383
      0.258    5.258
      0.260    7.513
      0.262    9.979
      0.264   12.535
      0.266   14.849
      0.268   16.841
      0.270   18.227
      0.272   19.158
      0.274   19.458
      0.276   19.295
      0.278   18.630
      0.280   17.697
      0.282   16.534
      0.284   15.245
      0.286   13.899
      0.288   12.567
      0.290   11.317
      0.292   10.112
      0.294    9.019
      0.296    8.051
      0.298    7.186
      0.300    6.426
      0.302    5.770
      0.304    5.179
      0.306    4.705
      0.308    4.282
      0.310    3.935
      0.312    3.631
      0.314    3.389
      0.316    3.165
      0.318    2.994
      0.320    2.846
      0.322    2.727
      0.324    2.615
      0.326    2.537
      0.328    2.465
      0.330    2.404
      0.332    2.349
      0.334    2.308
      0.336    2.273
      0.338    2.241
      0.340    2.214
      0.342    2.189
      0.344    2.171
      0.346    2.151
      0.348    2.136
      0.350    2.120
      0.352    2.109
      0.354    2.095
      0.356    2.085
      0.358    2.070
      0.360    2.062
      0.362    2.051
      0.364    2.045
      0.366    2.034
      0.368    2.029
      0.370    2.027
      0.372    2.017
      0.374    2.014
      0.376    2.006
      0.378    2.012
      0.380    2.011
      0.382    2.011
      0.384    2.014
      0.386    2.017
      0.388    2.023
      0.390    2.029
      0.392    2.040
      0.394    2.045
      0.396    2.060
      0.398    2.068
      0.400    2.081
      0.402    2.100
      0.404    2.116
      0.406    2.131
      0.408    2.154
      0.410    2.168
      0.412    2.187
      0.414    2.209
      0.416    2.227
      0.418    2.249
      0.420    2.268
      0.422    2.290
      0.424    2.304
      0.426    2.331
      0.428    2.347
      0.430    2.361
      0.432    2.380
      0.434    2.401
      0.436    2.409
      0.438    2.424
      0.440    2.441
      0.442    2.452
      0.444    2.461
      0.446    2.470
      0.448    2.476
      0.450    2.493
      0.452    2.490
      0.454    2.493
      0.456    2.500
      0.458    2.500
      0.460    2.502
      0.462    2.499
      0.464    2.503
      0.466    2.500
      0.468    2.496
      0.470    2.494
      0.472    2.490
      0.474    2.484
      0.476    2.478
      0.478    2.470
      0.480    2.462
      0.482    2.456
      0.484    2.448
      0.486    2.435
      0.488    2.427
      0.490    2.415
      0.492    2.407
      0.494    2.394
      0.496    2.379
      0.498    2.374
      0.500    2.359
      0.502    2.343
      0.504    2.333
      0.506    2.315
      0.508    2.303
      0.510    2.284
      0.512    2.276
      0.514    2.253
      0.516    2.238
      0.518    2.219
      0.520    2.200
      0.522    2.182
      0.524    2.158
      0.526    2.134
      0.528    2.115
      0.530    2.091
      0.532    2.065
      0.534    2.037
      0.536    2.013
      0.538    1.984
      0.540    1.954
      0.542    1.926
      0.544    1.898
      0.546    1.871
      0.548    1.840
      0.550    1.813
      0.552    1.785
      0.554    1.759
      0.556    1.734
      0.558    1.706
      0.560    1.686
      0.562    1.662
      0.564    1.645
      0.566    1.626
      0.568    1.608
      0.570    1.594
      0.572    1.581
      0.574    1.567
      0.576    1.558
      0.578    1.550
      0.580    1.542
      0.582    1.533
      0.584    1.526
      0.586    1.521
      0.588    1.517
      0.590    1.514
      0.592    1.510
      0.594    1.508
      0.596    1.508
      0.598    1.507
      0.600    1.504
      0.602    1.504
      0.604    1.501
      0.606    1.501
      0.608    1.502
      0.610    1.501
      0.612    1.503
      0.614    1.502
      0.616    1.502
      0.618    1.503
      0.620    1.504
      0.622    1.503
      0.624    1.504
      0.626    1.505
      0.628    1.505
      0.630    1.505
      0.632    1.507
      0.634    1.507
      0.636    1.509
      0.638    1.509
      0.640    1.510
      0.642    1.511
      0.644    1.513
      0.646    1.513
      0.648    1.514
      0.650    1.516
      0.652    1.516
      0.654    1.519
      0.656    1.517
      0.658    1.521
      0.660    1.519
      0.662    1.522
      0.664    1.521
      0.666    1.524
      0.668    1.521
      0.670    1.524
      0.672    1.525
      0.674    1.523
      0.676    1.525
      0.678    1.522
      0.680    1.524
      0.682    1.524
      0.684    1.521
      0.686    1.521
      0.688    1.520
      0.690    1.519
      0.692    1.516
      0.694    1.515
      0.696    1.511
      0.698    1.509
      0.700    1.507
      0.702    1.504
      0.704    1.500
      0.706    1.496
      0.708    1.493
      0.710    1.489
      0.712    1.486
      0.714    1.481
      0.716    1.475
      0.718    1.472
      0.720    1.467
      0.722    1.463
      0.724    1.457
      0.726    1.453
      0.728    1.447
      0.730    1.442
      0.732    1.434
      0.734    1.432
      0.736    1.424
      0.738    1.418
      0.740    1.415
      0.742    1.408
      0.744    1.404
      0.746    1.397
      0.748    1.393
      0.750    1.387
      0.752    1.383
      0.754    1.377
      0.756    1.371
      0.758    1.368
      0.760    1.361
      0.762    1.357
      0.764    1.352
      0.766    1.347
      0.768    1.344
      0.770    1.338
      0.772    1.336
      0.774    1.329
      0.776    1.327
      0.778    1.322
      0.780    1.320
      0.782    1.314
      0.784    1.310
      0.786    1.308
      0.788    1.304
      0.790    1.300
      0.792    1.299
      0.794    1.295
      0.796    1.292
      0.798    1.287
      0.800    1.288
      0.802    1.284
      0.804    1.283
      0.806    1.279
      0.808    1.276
      0.810    1.275
      0.812    1.272
      0.814    1.270
      0.816    1.268
      0.818    1.266
      0.820    1.263
      0.822    1.262
      0.824    1.259
      0.826    1.258
      0.828    1.256
      0.830    1.255
      0.832    1.252
      0.834    1.251
      0.836    1.249
      0.838    1.247
      0.840    1.246
      0.842    1.245
      0.844    1.242
      0.846    1.240
      0.848    1.240
      0.850    1.237
      0.852    1.236
      0.854    1.234
      0.856    1.232
      0.858    1.232
      0.860    1.229
      0.862    1.227
      0.864    1.225
      0.866    1.223
      0.868    1.222
      0.870    1.221
      0.872    1.220
      0.874    1.217
      0.876    1.215
      0.878    1.215
      0.880    1.212
      0.882    1.211
      0.884    1.209
      0.886    1.206
      0.888    1.206
      0.890    1.203
      0.892    1.202
      0.894    1.200
      0.896    1.198
      0.898    1.195
      0.900    1.195
      0.902    1.193
      0.904    1.192
      0.906    1.189
      0.908    1.188
      0.910    1.184
      0.912    1.184
      0.914    1.181
      0.916    1.180
      0.918    1.177
      0.920    1.176
      0.922    1.174
      0.924    1.171
      0.926    1.170
      0.928    1.167
      0.930    1.165
      0.932    1.162
      0.934    1.160
      0.936    1.159
      0.938    1.157
      0.940    1.154
      0.942    1.153
      0.944    1.150
      0.946    1.148
      0.948    1.146
      0.950    1.144
      0.952    1.141
      0.954    1.139
      0.956    1.137
      0.958    1.135
      0.960    1.133
      0.962    1.131
      0.964    1.129
      0.966    1.127
      0.968    1.125
      0.970    1.122
      0.972    1.122
      0.974    1.118
      0.976    1.117
      0.978    1.115
      0.980    1.114
      0.982    1.111
      0.984    1.110
      0.986    1.108
      0.988    1.106
      0.990    1.104
      0.992    1.104
      0.994    1.100
      0.996    1.099
      0.998    1.098
      1.000    1.096
      1.002    1.095
      1.004    1.094
      1.006    1.092
      1.008    1.090
      1.010    1.089
      1.012    1.088
      1.014    1.086
      1.016    1.086
      1.018    1.085
      1.020    1.083
      1.022    1.082
      1.024    1.080
      1.026    1.081
      1.028    1.079
      1.030    1.079
      1.032    1.077
      1.034    1.076
      1.036    1.074
      1.038    1.075
      1.040    1.075
      1.042    1.074
      1.044    1.072
      1.046    1.072
      1.048    1.071
      1.050    1.071
      1.052    1.070
      1.054    1.069
      1.056    1.068
      1.058    1.067
      1.060    1.067
      1.062    1.067
      1.064    1.066
      1.066    1.065
      1.068    1.065
      1.070    1.065
      1.072    1.065
      1.074    1.063
      1.076    1.063
      1.078    1.063
      1.080    1.063
      1.082    1.063
      1.084    1.062
      1.086    1.062
      1.088    1.061
      1.090    1.061
      1.092    1.061
      1.094    1.060
      1.096    1.059
      1.098    1.059
      1.100    1.058
      1.102    1.058
      1.104    1.058
      1.106    1.059
      1.108    1.058
      1.110    1.057
      1.112    1.057
      1.114    1.057
      1.116    1.057
      1.118    1.056
      1.120    1.056
      1.122    1.057
      1.124    1.056
      1.126    1.055
      1.128    1.055
      1.130    1.055
      1.132    1.054
      1.134    1.054
      1.136    1.053
      1.138    1.053
      1.140    1.054
      1.142    1.053
      1.144    1.052
      1.146    1.052
      1.148    1.052
      1.150    1.051
      1.152    1.051
      1.154    1.051
      1.156    1.051
      1.158    1.050
      1.160    1.050
      1.162    1.050
      1.164    1.049
      1.166    1.049
      1.168    1.048
      1.170    1.049
      1.172    1.048
      1.174    1.047
      1.176    1.047
      1.178    1.047
      1.180    1.047
      1.182    1.047
      1.184    1.045
      1.186    1.046
      1.188    1.045
      1.190    1.044
      1.192    1.045
      1.194    1.043
      1.196    1.044
      1.198    1.043
      1.200    1.043
      1.202    1.042
      1.204    1.043
      1.206    1.041
      1.208    1.041
      1.210    1.041
      1.212    1.040
      1.214    1.040
      1.216    1.038
      1.218    1.039
      1.220    1.039
      1.222    1.038
      1.224    1.038
      1.226    1.037
      1.228    1.037
      1.230    1.036
      1.232    1.036
      1.234    1.036
      1.236    1.035
      1.238    1.034
      1.240    1.034
      1.242    1.034
      1.244    1.034
      1.246    1.033
      1.248    1.033
      1.250    1.032
      1.252    1.032
      1.254    1.032
      1.256    1.032
      1.258    1.031
      1.260    1.030
      1.262    1.030
      1.264    1.030
      1.266    1.029
      1.268    1.029
      1.270    1.028
      1.272    1.028
      1.274    1.028
      1.276    1.027
      1.278    1.026
      1.280    1.027
      1.282    1.026
      1.284    1.025
      1.286    1.025
      1.288    1.024
      1.290    1.025
      1.292    1.024
      1.294    1.023
      1.296    1.024
      1.298    1.024
      1.300    1.022
      1.302    1.022
      1.304    1.022
      1.306    1.021
      1.308    1.021
      1.310    1.020
      1.312    1.020
      1.314    1.020
      1.316    1.019
      1.318    1.019
      1.320    1.018
      1.322    1.018
      1.324    1.017
      1.326    1.017
      1.328    1.018
      1.330    1.016
      1.332    1.016
      1.334    1.015
      1.336    1.015
      1.338    1.014
      1.340    1.014
      1.342    1.013
      1.344    1.014
      1.346    1.013
      1.348    1.013
      1.350    1.012
      1.352    1.012
      1.354    1.011
      1.356    1.011
      1.358    1.010
      1.360    1.010
      1.362    1.009
      1.364    1.009
      1.366    1.009
      1.368    1.008
      1.370    1.009
      1.372    1.008
      1.374    1.008
      1.376    1.007
      1.378    1.007
      1.380    1.006
      1.382    1.006
      1.384    1.006
      1.386    1.005
      1.388    1.005
      1.390    1.005
      1.392    1.004
      1.394    1.005
      1.396    1.004
      1.398    1.003
      1.400    1.003
      1.402    1.003
      1.404    1.002
      1.406    1.002
      1.408    1.002
      1.410    1.001
      1.412    1.002
      1.414    1.001
      1.416    1.001
      1.418    1.000
      1.420    0.999
      1.422    1.000
      1.424    0.999
      1.426    0.999
      1.428    1.000
      1.430    0.998
      1.432    0.998
      1.434    0.998
      1.436    0.998
      1.438    0.998
      1.440    0.997
      1.442    0.997
      1.444    0.997
      1.446    0.997
      1.448    0.996
      1.450    0.996
      1.452    0.995
      1.454    0.996
      1.456    0.995
      1.458    0.996
      1.460    0.995
      1.462    0.994
      1.464    0.995
      1.466    0.995
      1.468    0.995
      1.470    0.994
      1.472    0.994
      1.474    0.993
      1.476    0.994
      1.478    0.993
      1.480    0.993
      1.482    0.994
      1.484    0.993
      1.486    0.993
      1.488    0.993
      1.490    0.993
      1.492    0.992
      1.494    0.992
      1.496    0.992
      1.498    0.993
      1.500    0.992
      1.502    0.992
      1.504    0.992
      1.506    0.992
      1.508    0.992
      1.510    0.992
      1.512    0.992
      1.514    0.991
      1.516    0.991
      1.518    0.992
      1.520    0.991
      1.522    0.991
      1.524    0.991
      1.526    0.991
      1.528    0.991
      1.530    0.992
      1.532    0.991
      1.534    0.991
      1.536    0.992
      1.538    0.991
      1.540    0.991
      1.542    0.991
      1.544    0.991
      1.546    0.991
      1.548    0.991
      1.550    0.991
      1.552    0.991
      1.554    0.991
      1.556    0.991
      1.558    0.991
      1.560    0.991
      1.562    0.991
      1.564    0.991
      1.566    0.991
      1.568    0.991
      1.570    0.991
      1.572    0.991
      1.574    0.991
      1.576    0.991
      1.578    0.991
      1.580    0.991
      1.582    0.991
      1.584    0.992
      1.586    0.992
      1.588    0.991
      1.590    0.991
      1.592    0.991
      1.594    0.992
      1.596    0.991
      1.598    0.991
      1.600    0.991
      1.602    0.992
      1.604    0.992
      1.606    0.991
      1.608    0.991
      1.610    0.992
      1.612    0.991
      1.614    0.992
      1.616    0.992
      1.618    0.992
      1.620    0.992
      1.622    0.992
      1.624    0.991
      1.626    0.992
      1.628    0.992
      1.630    0.991
      1.632    0.992
      1.634    0.992
      1.636    0.992
      1.638    0.992
      1.640    0.992
      1.642    0.992
      1.644    0.992
      1.646    0.992
      1.648    0.992
      1.650    0.993
      1.652    0.992
      1.654    0.992
      1.656    0.992
      1.658    0.992
      1.660    0.992
      1.662    0.992
      1.664    0.992
      1.666    0.992
      1.668    0.992
      1.670    0.992
      1.672    0.992
      1.674    0.992
      1.676    0.992
      1.678    0.992
      1.680    0.992
      1.682    0.992
      1.684    0.992
      1.686    0.992
      1.688    0.992
      1.690    0.992
      1.692    0.992
      1.694    0.992
      1.696    0.991
      1.698    0.992
      1.700    0.992
      1.702    0.992
      1.704    0.992
      1.706    0.991
      1.708    0.992
      1.710    0.991
      1.712    0.991
      1.714    0.992
      1.716    0.992
      1.718    0.991
      1.720    0.992
      1.722    0.991
      1.724    0.991
      1.726    0.991
      1.728    0.991
      1.730    0.992
      1.732    0.991
      1.734    0.991
      1.736    0.991
      1.738    0.991
      1.740    0.991
      1.742    0.991
      1.744    0.990
      1.746    0.991
      1.748    0.990
      1.750    0.990
      1.752    0.990
      1.754    0.991
      1.756    0.991
      1.758    0.990
      1.760    0.990
      1.762    0.990
      1.764    0.990
      1.766    0.990
      1.768    0.990
      1.770    0.990
      1.772    0.990
      1.774    0.990
      1.776    0.990
      1.778    0.990
      1.780    0.989
      1.782    0.990
      1.784    0.990
      1.786    0.989
      1.788    0.989
      1.790    0.989
      1.792    0.989
      1.794    0.989
      1.796    0.989
      1.798    0.989
      1.800    0.989
      1.802    0.989
      1.804    0.989
      1.806    0.988
      1.808    0.989
      1.810    0.989
      1.812    0.988
      1.814    0.988
      1.816    0.988
      1.818    0.988
      1.820    0.988
      1.822    0.988
      1.824    0.988
      1.826    0.988
      1.828    0.988
      1.830    0.988
      1.832    0.988
      1.834    0.987
      1.836    0.988
      1.838    0.988
      1.840    0.988
      1.842    0.988
      1.844    0.988
      1.846    0.987
      1.848    0.987
      1.850    0.987
      1.852    0.988
      1.854    0.987
      1.856    0.987
      1.858    0.987
      1.860    0.987
      1.862    0.987
      1.864    0.987
      1.866    0.987
      1.868    0.987
      1.870    0.987
      1.872    0.987
      1.874    0.987
      1.876    0.987
      1.878    0.986
      1.880    0.987
      1.882    0.987
      1.884    0.986
      1.886    0.987
      1.888    0.986
      1.890    0.987
      1.892    0.987
      1.894    0.987
      1.896    0.987
      1.898    0.986
      1.900    0.986
      1.902    0.986
      1.904    0.986
      1.906    0.986
      1.908    0.986
      1.910    0.986
      1.912    0.987
      1.914    0.987
      1.916    0.986
      1.918    0.986
      1.920    0.986
      1.922    0.986
      1.924    0.986
      1.926    0.986
      1.928    0.986
      1.930    0.986
      1.932    0.986
      1.934    0.986
      1.936    0.986
      1.938    0.986
      1.940    0.986
      1.942    0.986
      1.944    0.986
      1.946    0.986
      1.948    0.986
      1.950    0.986
      1.952    0.986
      1.954    0.986
      1.956    0.986
      1.958    0.986
      1.960    0.986
      1.962    0.986
      1.964    0.986
      1.966    0.986
      1.968    0.987
      1.970    0.986
      1.972    0.986
      1.974    0.987
      1.976    0.986
      1.978    0.986
      1.980    0.986
      1.982    0.986
      1.984    0.987
      1.986    0.987
      1.988    0.987
      1.990    0.987
      1.992    0.987
      1.994    0.987
      1.996    0.986
      1.998    0.986
      2.000    0.987
      2.002    0.987
      2.004    0.987
      2.006    0.987
      2.008    0.987
      2.010    0.987
      2.012    0.987
      2.014    0.987
      2.016    0.987
      2.018    0.987
      2.020    0.987
      2.022    0.987
      2.024    0.987
      2.026    0.987
      2.028    0.987
      2.030    0.988
      2.032    0.988
      2.034    0.987
      2.036    0.987
      2.038    0.987
      2.040    0.987
      2.042    0.988
      2.044    0.987
      2.046    0.988
      2.048    0.987
      2.050    0.988
      2.052    0.988
      2.054    0.988
      2.056    0.988
      2.058    0.988
      2.060    0.988
      2.062    0.988
      2.064    0.988
      2.066    0.988
      2.068    0.988
      2.070    0.988
      2.072    0.988
      2.074    0.988
      2.076    0.988
      2.078    0.988
      2.080    0.988
      2.082    0.989
      2.084    0.988
      2.086    0.989
      2.088    0.988
      2.090    0.989
      2.092    0.989
      2.094    0.989
      2.096    0.989
      2.098    0.989
      2.100    0.988
      2.102    0.989
      2.104    0.989
      2.106    0.989
      2.108    0.989
      2.110    0.989
      2.112    0.989
      2.114    0.989
      2.116    0.989
      2.118    0.989
      2.120    0.989
      2.122    0.989
      2.124    0.989
      2.126    0.989
      2.128    0.989
      2.130    0.989
      2.132    0.989
      2.134    0.989
      2.136    0.989
      2.138    0.989
      2.140    0.989
      2.142    0.990
      2.144    0.989
      2.146    0.990
      2.148    0.990
      2.150    0.989
      2.152    0.990
      2.154    0.990
      2.156    0.989
      2.158    0.990
      2.160    0.989
      2.162    0.990
      2.164    0.990
      2.166    0.989
      2.168    0.990
      2.170    0.989
      2.172    0.989
      2.174    0.990
      2.176    0.989
      2.178    0.990
      2.180    0.989
      2.182    0.989
      2.184    0.990
      2.186    0.989
      2.188    0.990
      2.190    0.990
      2.192    0.989
      2.194    0.990
      2.196    0.990
      2.198    0.990
      2.200    0.990
      2.202    0.989
      2.204    0.990
      2.206    0.989
      2.208    0.990
      2.210    0.990
      2.212    0.989
      2.214    0.990
      2.216    0.990
      2.218    0.989
      2.220    0.990
      2.222    0.990
      2.224    0.990
      2.226    0.990
      2.228    0.990
      2.230    0.990
      2.232    0.989
      2.234    0.990
      2.236    0.990
      2.238    0.989
      2.240    0.990
      2.242    0.989
      2.244    0.990
      2.246    0.990
      2.248    0.989
      2.250    0.990
      2.252    0.990
      2.254    0.989
      2.256    0.990
      2.258    0.989
      2.260    0.990
      2.262    0.990
      2.264    0.989
      2.266    0.990
      2.268    0.989
      2.270    0.990
      2.272    0.989
      2.274    0.989
      2.276    0.989
      2.278    0.989
      2.280    0.990
      2.282    0.989
      2.284    0.989
      2.286    0.989
      2.288    0.989
      2.290    0.990
      2.292    0.990
      2.294    0.989
      2.296    0.990
      2.298    0.989
      2.300    0.989
      2.302    0.989
      2.304    0.989
      2.306    0.990
      2.308    0.990
      2.310    0.989
      2.312    0.990
      2.314    0.989
      2.316    0.990
      2.318    0.990
      2.320    0.989
      2.322    0.989
      2.324    0.989
      2.326    0.990
      2.328    0.989
      2.330    0.989
      2.332    0.989
      2.334    0.989
      2.336    0.990
      2.338    0.989
      2.340    0.989
      2.342    0.989
      2.344    0.989
      2.346    0.989
      2.348    0.990
      2.350    0.989
      2.352    0.989
      2.354    0.990
      2.356    0.989
      2.358    0.989
      2.360    0.989
      2.362    0.989
      2.364    0.989
      2.366    0.989
      2.368    0.989
      2.370    0.989
      2.372    0.989
      2.374    0.990
      2.376    0.989
      2.378    0.989
      2.380    0.989
      2.382    0.989
      2.384    0.989
      2.386    0.990
      2.388    0.989
      2.390    0.989
      2.392    0.990
      2.394    0.990
      2.396    0.989
      2.398    0.989
      2.400    0.989
      2.402    0.989
      2.404    0.990
      2.406    0.989
      2.408    0.990
      2.410    0.989
      2.412    0.989
      2.414    0.990
      2.416    0.989
      2.418    0.990
      2.420    0.990
      2.422    0.989
      2.424    0.990
      2.426    0.989
      2.428    0.990
      2.430    0.989
      2.432    0.990
      2.434    0.990
      2.436    0.989
      2.438    0.989
      2.440    0.990
      2.442    0.990
      2.444    0.990
      2.446    0.990
      2.448    0.990
      2.450    0.990
      2.452    0.990
      2.454    0.990
      2.456    0.990
      2.458    0.990
      2.460    0.990
      2.462    0.990
      2.464    0.990
      2.466    0.990
      2.468    0.990
      2.470    0.990
      2.472    0.990
      2.474    0.990
      2.476    0.990
      2.478    0.990
      2.480    0.990
      2.482    0.990
      2.484    0.990
      2.486    0.990
      2.488    0.990
      2.490    0.990
      2.492    0.990
      2.494    0.990
      2.496    0.990
      2.498    0.990
      2.500    0.991
      2.502    0.990
      2.504    0.991
      2.506    0.991
      2.508    0.990
      2.510    0.990
      2.512    0.991
      2.514    0.990
      2.516    0.991
      2.518    0.991
      2.520    0.990
      2.522    0.991
      2.524    0.990
      2.526    0.991
      2.528    0.990
      2.530    0.991
      2.532    0.990
      2.534    0.991
      2.536    0.991
      2.538    0.991
      2.540    0.991
      2.542    0.990
      2.544    0.990
      2.546    0.991
      2.548    0.991
      2.550    0.991
      2.552    0.991
      2.554    0.990
      2.556    0.991
      2.558    0.991
      2.560    0.991
      2.562    0.991
      2.564    0.991
      2.566    0.991
      2.568    0.991
      2.570    0.991
      2.572    0.991
      2.574    0.991
      2.576    0.991
      2.578    0.991
      2.580    0.991
      2.582    0.991
      2.584    0.991
      2.586    0.991
      2.588    0.991
      2.590    0.991
      2.592    0.991
      2.594    0.991
      2.596    0.991
      2.598    0.991
      2.600    0.991
      2.602    0.991
      2.604    0.991
      2.606    0.991
      2.608    0.991
      2.610    0.991
      2.612    0.992
      2.614    0.991
      2.616    0.991
      2.618    0.991
      2.620    0.991
      2.622    0.992
      2.624    0.991
      2.626    0.992
      2.628    0.991
      2.630    0.991
      2.632    0.992
      2.634    0.991
      2.636    0.991
      2.638    0.992
      2.640    0.992
      2.642    0.991
      2.644    0.992
      2.646    0.991
      2.648    0.992
      2.650    0.991
      2.652    0.991
      2.654    0.991
      2.656    0.991
      2.658    0.992
      2.660    0.992
      2.662    0.992
      2.664    0.992
      2.666    0.992
      2.668    0.992
      2.670    0.991
      2.672    0.991
      2.674    0.992
      2.676    0.992
      2.678    0.992
      2.680    0.992
      2.682    0.991
      2.684    0.991
      2.686    0.992
      2.688    0.992
      2.690    0.991
      2.692    0.991
      2.694    0.991
      2.696    0.992
      2.698    0.992
      2.700    0.991
      2.702    0.992
      2.704    0.991
      2.706    0.991
      2.708    0.991
      2.710    0.992
      2.712    0.992
      2.714    0.992
      2.716    0.991
      2.718    0.991
      2.720    0.992
      2.722    0.991
      2.724    0.992
      2.726    0.992
      2.728    0.991
      2.730    0.992
      2.732    0.991
      2.734    0.992
      2.736    0.992
      2.738    0.991
      2.740    0.992
      2.742    0.992
      2.744    0.991
      2.746    0.992
      2.748    0.992
      2.750    0.992
      2.752    0.992
      2.754    0.991
      2.756    0.991
      2.758    0.992
      2.760    0.991
      2.762    0.991
      2.764    0.991
      2.766    0.992
      2.768    0.992
      2.770    0.992
      2.772    0.992
      2.774    0.992
      2.776    0.992
      2.778    0.992
      2.780    0.991
      2.782    0.992
      2.784    0.991
      2.786    0.992
      2.788    0.992
      2.790    0.992
      2.792    0.992
      2.794    0.991
      2.796    0.992
      2.798    0.992
      2.800    0.991
      2.802    0.992
      2.804    0.992
      2.806    0.992
      2.808    0.991
      2.810    0.991
      2.812    0.992
      2.814    0.991
      2.816    0.992
      2.818    0.992
      2.820    0.992
      2.822    0.992
      2.824    0.992
      2.826    0.992
      2.828    0.992
      2.830    0.992
      2.832    0.992
      2.834    0.992
      2.836    0.992
      2.838    0.992
      2.840    0.991
      2.842    0.992
      2.844    0.992
      2.846    0.992
      2.848    0.992
      2.850    0.992
      2.852    0.992
      2.854    0.992
      2.856    0.992
      2.858    0.992
      2.860    0.991
      2.862    0.992
      2.864    0.992
      2.866    0.992
      2.868    0.992
      2.870    0.992
      2.872    0.992
      2.874    0.992
      2.876    0.992
      2.878    0.992
      2.880    0.992
      2.882    0.992
      2.884    0.992
      2.886    0.992
      2.888    0.992
      2.890    0.992
      2.892    0.992
      2.894    0.992
      2.896    0.992
      2.898    0.992
      2.900    0.992
      2.902    0.992
      2.904    0.992
      2.906    0.992
      2.908    0.992
      2.910    0.992
      2.912    0.992
      2.914    0.992
      2.916    0.992
      2.918    0.992
      2.920    0.992
      2.922    0.992
      2.924    0.992
      2.926    0.992
      2.928    0.992
      2.930    0.993
      2.932    0.992
      2.934    0.992
      2.936    0.992
      2.938    0.992
      2.940    0.992
      2.942    0.992
      2.944    0.992
      2.946    0.992
      2.948    0.992
      2.950    0.992
      2.952    0.992
      2.954    0.992
      2.956    0.992
      2.958    0.992
      2.960    0.992
      2.962    0.992
      2.964    0.992
      2.966    0.992
      2.968    0.992
      2.970    0.992
      2.972    0.992
      2.974    0.992
      2.976    0.992
      2.978    0.992
      2.980    0.993
      2.982    0.992
      2.984    0.993
      2.986    0.992
      2.988    0.992
      2.990    0.992
      2.992    0.993
      2.994    0.992
      2.996    0.992
      2.998    0.992
      3.000    0.992
      3.002    0.992
      3.004    0.993
      3.006    0.993
      3.008    0.992
      3.010    0.993
      3.012    0.993
      3.014    0.992
      3.016    0.992
      3.018    0.992
      3.020    0.992
      3.022    0.992
      3.024    0.992
      3.026    0.993
      3.028    0.992
      3.030    0.993
      3.032    0.993
      3.034    0.992
      3.036    0.992
      3.038    0.993
      3.040    0.993
      3.042    0.993
      3.044    0.993
      3.046    0.993
      3.048    0.992
      3.050    0.992
      3.052    0.993
      3.054    0.992
      3.056    0.993
      3.058    0.993
      3.060    0.992
      3.062    0.993
      3.064    0.993
      3.066    0.993
      3.068    0.993
      3.070    0.993
      3.072    0.993
      3.074    0.993
      3.076    0.993
      3.078    0.993
      3.080    0.993
      3.082    0.993
      3.084    0.993
      3.086    0.993
      3.088    0.993
      3.090    0.993
      3.092    0.993
      3.094    0.993
      3.096    0.993
      3.098    0.993
      3.100    0.993
      3.102    0.993
      3.104    0.993
      3.106    0.993
      3.108    0.993
      3.110    0.993
      3.112    0.993
      3.114    0.993
      3.116    0.993
      3.118    0.993
      3.120    0.993
      3.122    0.993
      3.124    0.993
      3.126    0.993
      3.128    0.993
      3.130    0.993
      3.132    0.993
      3.134    0.993
      3.136    0.993
      3.138    0.993
      3.140    0.993
      3.142    0.993
      3.144    0.993
      3.146    0.993
      3.148    0.993
      3.150    0.993
      3.152    0.993
      3.154    0.993
      3.156    0.993
      3.158    0.993
      3.160    0.993
      3.162    0.993
      3.164    0.993
      3.166    0.993
      3.168    0.993
      3.170    0.993
      3.172    0.993
      3.174    0.993
      3.176    0.993
      3.178    0.993
      3.180    0.993
      3.182    0.993
      3.184    0.993
      3.186    0.993
      3.188    0.993
      3.190    0.993
      3.192    0.993
      3.194    0.993
      3.196    0.993
      3.198    0.993
      3.200    0.993
      3.202    0.993
      3.204    0.993
      3.206    0.993
      3.208    0.993
      3.210    0.993
      3.212    0.993
      3.214    0.993
      3.216    0.993
      3.218    0.993
      3.220    0.993
      3.222    0.993
      3.224    0.993
      3.226    0.993
      3.228    0.993
      3.230    0.993
      3.232    0.993
      3.234    0.993
      3.236    0.993
      3.238    0.993
      3.240    0.993
      3.242    0.993
      3.244    0.993
      3.246    0.993
      3.248    0.993
      3.250    0.993
      3.252    0.993
      3.254    0.993
      3.256    0.993
      3.258    0.993
      3.260    0.993
      3.262    0.993
      3.264    0.993
      3.266    0.993
      3.268    0.993
      3.270    0.993
      3.272    0.993
      3.274    0.993
      3.276    0.993
      3.278    0.993
      3.280    0.993
      3.282    0.993
      3.284    0.993
      3.286    0.993
      3.288    0.993
      3.290    0.993
      3.292    0.993
      3.294    0.993
      3.296    0.993
      3.298    0.993
      3.300    0.993
      3.302    0.993
      3.304    0.993
      3.306    0.994
      3.308    0.993
      3.310    0.993
      3.312    0.994
      3.314    0.993
      3.316    0.994
      3.318    0.993
      3.320    0.993
      3.322    0.993
      3.324    0.994
      3.326    0.993
      3.328    0.993
      3.330    0.993
      3.332    0.994
      3.334    0.993
      3.336    0.994
      3.338    0.994
      3.340    0.993
      3.342    0.993
      3.344    0.993
      3.346    0.993
      3.348    0.993
      3.350    0.994
      3.352    0.994
      3.354    0.994
      3.356    0.993
      3.358    0.994
      3.360    0.993
      3.362    0.994
      3.364    0.994
      3.366    0.993
      3.368    0.994
      3.370    0.994
      3.372    0.994
      3.374    0.994
      3.376    0.993
      3.378    0.994
      3.380    0.994
      3.382    0.993
      3.384    0.993
      3.386    0.994
      3.388    0.994
      3.390    0.994
      3.392    0.994
      3.394    0.994
      3.396    0.994
      3.398    0.994
      3.400    0.994
      3.402    0.994
      3.404    0.994
      3.406    0.994
      3.408    0.994
      3.410    0.994
      3.412    0.994
      3.414    0.994
      3.416    0.994
      3.418    0.994
      3.420    0.994
      3.422    0.994
      3.424    0.994
      3.426    0.994
      3.428    0.994
      3.430    0.994
      3.432    0.994
      3.434    0.994
      3.436    0.994
      3.438    0.994
      3.440    0.994
      3.442    0.994
      3.444    0.994
      3.446    0.994
      3.448    0.994
      3.450    0.994
      3.452    0.994
      3.454    0.994
      3.456    0.994
      3.458    0.994
      3.460    0.994
      3.462    0.994
      3.464    0.994
      3.466    0.994
      3.468    0.994
      3.470    0.994
      3.472    0.994
      3.474    0.994
      3.476    0.994
      3.478    0.994
      3.480    0.994
      3.482    0.994
      3.484    0.994
      3.486    0.994
      3.488    0.994
      3.490    0.994
      3.492    0.994
      3.494    0.994
      3.496    0.994
      3.498    0.994
      3.500    0.994
      3.502    0.994
      3.504    0.994
      3.506    0.994
      3.508    0.994
      3.510    0.994
      3.512    0.994
      3.514    0.994
      3.516    0.995
      3.518    0.994
      3.520    0.994
      3.522    0.994
      3.524    0.994
      3.526    0.994
      3.528    0.994
      3.530    0.994
      3.532    0.994
      3.534    0.994
      3.536    0.994
      3.538    0.995
      3.540    0.994
      3.542    0.994
      3.544    0.994
      3.546    0.995
      3.548    0.994
      3.550    0.994
      3.552    0.994
      3.554    0.995
      3.556    0.994
      3.558    0.994
      3.560    0.994
      3.562    0.995
      3.564    0.994
      3.566    0.994
      3.568    0.995
      3.570    0.994
      3.572    0.995
      3.574    0.995
      3.576    0.994
      3.578    0.994
      3.580    0.994
      3.582    0.995
      3.584    0.995
      3.586    0.995
      3.588    0.995
      3.590    0.995
      3.592    0.995
      3.594    0.994
      3.596    0.994
      3.598    0.995
      3.600    0.995
      3.602    0.995
      3.604    0.995
      3.606    0.995
      3.608    0.995
      3.610    0.995
      3.612    0.994
      3.614    0.995
      3.616    0.995
      3.618    0.995
      3.620    0.995
      3.622    0.995
      3.624    0.994
      3.626    0.995
      3.628    0.995
      3.630    0.995
      3.632    0.995
      3.634    0.994
      3.636    0.995
      3.638    0.995
      3.640    0.995
      3.642    0.995
      3.644    0.995
      3.646    0.995
      3.648    0.995
      3.650    0.995
      3.652    0.995
      3.654    0.995
      3.656    0.995
      3.658    0.995
      3.660    0.995
      3.662    0.995
      3.664    0.995
      3.666    0.995
      3.668    0.995
      3.670    0.995
      3.672    0.995
      3.674    0.995
      3.676    0.995
      3.678    0.995
      3.680    0.995
      3.682    0.995
      3.684    0.995
      3.686    0.995
      3.688    0.995
      3.690    0.995
      3.692    0.995
      3.694    0.995
      3.696    0.995
      3.698    0.995
      3.700    0.995
      3.702    0.995
      3.704    0.995
      3.706    0.995
      3.708    0.995
      3.710    0.995
      3.712    0.995
      3.714    0.995
      3.716    0.995
      3.718    0.995
      3.720    0.995
      3.722    0.995
      3.724    0.995
      3.726    0.995
      3.728    0.995
      3.730    0.995
      3.732    0.995
      3.734    0.995
      3.736    0.995
      3.738    0.995
      3.740    0.995
      3.742    0.995
      3.744    0.995
      3.746    0.995
      3.748    0.995
      3.750    0.995
      3.752    0.995
      3.754    0.995
      3.756    0.995
      3.758    0.995
      3.760    0.995
      3.762    0.996
      3.764    0.995
      3.766    0.996
      3.768    0.995
      3.770    0.995
      3.772    0.995
      3.774    0.995
      3.776    0.995
      3.778    0.995
      3.780    0.995
      3.782    0.996
      3.784    0.995
      3.786    0.995
      3.788    0.996
      3.790    0.995
      3.792    0.996
      3.794    0.995
      3.796    0.995
      3.798    0.995
      3.800    0.995
      3.802    0.996
      3.804    0.995
      3.806    0.996
      3.808    0.995
      3.810    0.996
      3.812    0.995
      3.814    0.995
      3.816    0.996
      3.818    0.996
      3.820    0.995
      3.822    0.996
      3.824    0.996
      3.826    0.996
      3.828    0.996
      3.830    0.996
      3.832    0.996
      3.834    0.996
      3.836    0.996
      3.838    0.996
      3.840    0.996
      3.842    0.996
      3.844    0.996
      3.846    0.996
      3.848    0.996
      3.850    0.996
      3.852    0.996
      3.854    0.996
      3.856    0.996
      3.858    0.996
      3.860    0.996
      3.862    0.996
      3.864    0.996
      3.866    0.996
      3.868    0.996
      3.870    0.996
      3.872    0.996
      3.874    0.996
      3.876    0.996
      3.878    0.996
      3.880    0.996
      3.882    0.996
      3.884    0.996
      3.886    0.996
      3.888    0.996
      3.890    0.996
      3.892    0.996
      3.894    0.996
      3.896    0.996
      3.898    0.996
      3.900    0.996
      3.902    0.996
      3.904    0.996
      3.906    0.996
      3.908    0.996
      3.910    0.996
      3.912    0.996
      3.914    0.996
      3.916    0.996
      3.918    0.996
      3.920    0.996
      3.922    0.996
      3.924    0.996
      3.926    0.996
      3.928    0.996
      3.930    0.996
      3.932    0.996
      3.934    0.996
      3.936    0.996
      3.938    0.996
      3.940    0.996
      3.942    0.996
      3.944    0.996
      3.946    0.996
      3.948    0.996
      3.950    0.996
      3.952    0.996
      3.954    0.996
      3.956    0.996
      3.958    0.996
      3.960    0.996
      3.962    0.996
      3.964    0.996
      3.966    0.996
      3.968    0.996
      3.970    0.996
      3.972    0.996
      3.974    0.996
      3.976    0.996
      3.978    0.996
      3.980    0.996
      3.982    0.996
      3.984    0.996
      3.986    0.996
      3.988    0.996
      3.990    0.996
      3.992    0.996
      3.994    0.996
      3.996    0.996
      3.998    0.996
      4.000    0.996
      4.002    0.996
      4.004    0.996
      4.006    0.996
      4.008    0.996
      4.010    0.996
      4.012    0.997
      4.014    0.996
      4.016    0.996
      4.018    0.997
      4.020    0.996
      4.022    0.997
      4.024    0.997
      4.026    0.996
      4.028    0.996
      4.030    0.996
      4.032    0.997
      4.034    0.997
      4.036    0.996
      4.038    0.997
      4.040    0.997
      4.042    0.996
      4.044    0.997
      4.046    0.997
      4.048    0.997
      4.050    0.997
      4.052    0.997
      4.054    0.996
      4.056    0.997
      4.058    0.997
      4.060    0.996
      4.062    0.996
      4.064    0.997
      4.066    0.997
      4.068    0.997
      4.070    0.996
      4.072    0.997
      4.074    0.997
      4.076    0.996
      4.078    0.997
      4.080    0.997
      4.082    0.996
      4.084    0.997
      4.086    0.997
      4.088    0.996
      4.090    0.997
      4.092    0.997
      4.094    0.997
      4.096    0.996
      4.098    0.997
      4.100    0.997
      4.102    0.996
      4.104    0.997
      4.106    0.997
      4.108    0.996
      4.110    0.997
      4.112    0.997
      4.114    0.997
      4.116    0.997
      4.118    0.997
      4.120    0.997
      4.122    0.997
      4.124    0.997
      4.126    0.997
      4.128    0.997
      4.130    0.997
      4.132    0.997
      4.134    0.997
      4.136    0.997
      4.138    0.997
      4.140    0.997
      4.142    0.996
      4.144    0.997
      4.146    0.997
      4.148    0.997
      4.150    0.997
      4.152    0.997
      4.154    0.997
      4.156    0.997
      4.158    0.997
      4.160    0.997
      4.162    0.997
      4.164    0.997
      4.166    0.997
      4.168    0.997
      4.170    0.997
      4.172    0.997
      4.174    0.996
      4.176    0.997
      4.178    0.997
      4.180    0.997
      4.182    0.997
      4.184    0.997
      4.186    0.997
      4.188    0.997
      4.190    0.997
      4.192    0.997
      4.194    0.997
      4.196    0.997
      4.198    0.997
      4.200    0.997
      4.202    0.997
      4.204    0.997
      4.206    0.997
      4.208    0.997
      4.210    0.997
      4.212    0.997
      4.214    0.997
      4.216    0.997
      4.218    0.997
      4.220    0.997
      4.222    0.997
      4.224    0.997
      4.226    0.997
      4.228    0.997
      4.230    0.997
      4.232    0.997
      4.234    0.997
      4.236    0.997
      4.238    0.997
      4.240    0.997
      4.242    0.997
      4.244    0.997
      4.246    0.997
      4.248    0.997
      4.250    0.997
      4.252    0.997
      4.254    0.997
      4.256    0.997
      4.258    0.997
      4.260    0.997
      4.262    0.998
      4.264    0.997
      4.266    0.997
      4.268    0.997
      4.270    0.997
      4.272    0.997
      4.274    0.997
      4.276    0.998
      4.278    0.997
      4.280    0.997
      4.282    0.997
      4.284    0.997
      4.286    0.997
      4.288    0.997
      4.290    0.998
      4.292    0.997
      4.294    0.997
      4.296    0.998
      4.298    0.997
      4.300    0.997
      4.302    0.998
      4.304    0.997
      4.306    0.997
      4.308    0.998
      4.310    0.997
      4.312    0.997
      4.314    0.997
      4.316    0.998
      4.318    0.997
      4.320    0.997
      4.322    0.997
      4.324    0.997
      4.326    0.997
      4.328    0.998
      4.330    0.997
      4.332    0.997
      4.334    0.998
      4.336    0.998
      4.338    0.997
      4.340    0.997
      4.342    0.998
      4.344    0.998
      4.346    0.997
      4.348    0.998
      4.350    0.997
      4.352    0.997
      4.354    0.998
      4.356    0.998
      4.358    0.997
      4.360    0.997
      4.362    0.998
      4.364    0.998
      4.366    0.997
      4.368    0.998
      4.370    0.998
      4.372    0.997
      4.374    0.998
      4.376    0.997
      4.378    0.997
      4.380    0.998
      4.382    0.998
      4.384    0.997
      4.386    0.998
      4.388    0.998
      4.390    0.998
      4.392    0.997
      4.394    0.998
      4.396    0.997
      4.398    0.997
      4.400    0.998
      4.402    0.997
      4.404    0.997
      4.406    0.998
      4.408    0.998
      4.410    0.998
      4.412    0.997
      4.414    0.998
      4.416    0.998
      4.418    0.998
      4.420    0.998
      4.422    0.998
      4.424    0.997
      4.426    0.998
      4.428    0.998
      4.430    0.997
      4.432    0.998
      4.434    0.998
      4.436    0.998
      4.438    0.997
      4.440    0.998
      4.442    0.998
      4.444    0.998
      4.446    0.998
      4.448    0.998
      4.450    0.997
      4.452    0.998
      4.454    0.998
      4.456    0.998
      4.458    0.997
      4.460    0.998
      4.462    0.998
      4.464    0.998
      4.466    0.998
      4.468    0.998
      4.470    0.998
      4.472    0.998
      4.474    0.998
      4.476    0.998
      4.478    0.998
      4.480    0.998
      4.482    0.998
      4.484    0.998
      4.486    0.998
      4.488    0.998
      4.490    0.998
      4.492    0.998
      4.494    0.998
      4.496    0.998
      4.498    0.998
      4.500    0.998
      4.502    0.998
      4.504    0.998
      4.506    0.998
      4.508    0.998
      4.510    0.998
      4.512    0.998
      4.514    0.998
      4.516    0.998
      4.518    0.998
      4.520    0.998
      4.522    0.998
      4.524    0.998
      4.526    0.998
      4.528    0.998
      4.530    0.998
      4.532    0.998
      4.534    0.998
      4.536    0.998
      4.538    0.998
      4.540    0.998
      4.542    0.998
      4.544    0.998
      4.546    0.998
      4.548    0.998
      4.550    0.998
      4.552    0.998
      4.554    0.998
      4.556    0.998
      4.558    0.998
      4.560    0.998
      4.562    0.998
      4.564    0.998
      4.566    0.998
      4.568    0.998
      4.570    0.998
      4.572    0.998
      4.574    0.998
      4.576    0.998
      4.578    0.998
      4.580    0.998
      4.582    0.998
      4.584    0.998
      4.586    0.998
      4.588    0.998
      4.590    0.998
      4.592    0.998
      4.594    0.998
      4.596    0.998
      4.598    0.998
      4.600    0.998
      4.602    0.998
      4.604    0.998
      4.606    0.998
      4.608    0.998
      4.610    0.998
      4.612    0.998
      4.614    0.998
      4.616    0.998
      4.618    0.998
      4.620    0.998
      4.622    0.998
      4.624    0.998
      4.626    0.998
      4.628    0.998
      4.630    0.998
      4.632    0.998
      4.634    0.998
      4.636    0.998
      4.638    0.998
      4.640    0.998
      4.642    0.998
      4.644    0.998
      4.646    0.998
      4.648    0.998
      4.650    0.999
      4.652    0.998
      4.654    0.998
      4.656    0.998
      4.658    0.998
      4.660    0.998
      4.662    0.998
      4.664    0.998
      4.666    0.998
      4.668    0.998
      4.670    0.998
      4.672    0.998
      4.674    0.998
      4.676    0.998
      4.678    0.998
      4.680    0.998
      4.682    0.998
      4.684    0.998
      4.686    0.998
      4.688    0.998
      4.690    0.999
      4.692    0.998
      4.694    0.998
      4.696    0.998
      4.698    0.998
      4.700    0.998
      4.702    0.998
      4.704    0.999
      4.706    0.998
      4.708    0.998
      4.710    0.999
      4.712    0.998
      4.714    0.998
      4.716    0.998
      4.718    0.998
      4.720    0.998
      4.722    0.998
      4.724    0.998
      4.726    0.998
      4.728    0.998
      4.730    0.998
      4.732    0.998
      4.734    0.998
      4.736    0.999
      4.738    0.998
      4.740    0.998
      4.742    0.999
      4.744    0.998
      4.746    0.998
      4.748    0.998
      4.750    0.999
      4.752    0.999
      4.754    0.998
      4.756    0.998
      4.758    0.998
      4.760    0.998
      4.762    0.999
      4.764    0.998
      4.766    0.998
      4.768    0.998
      4.770    0.999
      4.772    0.998
      4.774    0.998
      4.776    0.999
      4.778    0.998
      4.780    0.998
      4.782    0.999
      4.784    0.998
      4.786    0.998
      4.788    0.999
      4.790    0.998
      4.792    0.998
      4.794    0.998
      4.796    0.999
      4.798    0.998
      4.800    0.998
      4.802    0.998
      4.804    0.998
      4.806    0.998
      4.808    0.999
      4.810    0.998
      4.812    0.998
      4.814    0.998
      4.816    0.999
      4.818    0.998
      4.820    0.998
      4.822    0.999
      4.824    0.998
      4.826    0.998
      4.828    0.999
      4.830    0.998
      4.832    0.998
      4.834    0.999
      4.836    0.999
      4.838    0.998
      4.840    0.998
      4.842    0.999
      4.844    0.999
      4.846    0.998
      4.848    0.999
      4.850    0.998
      4.852    0.998
      4.854    0.999
      4.856    0.998
      4.858    0.998
      4.860    0.998
      4.862    0.999
      4.864    0.998
      4.866    0.998
      4.868    0.999
      4.870    0.998
      4.872    0.998
      4.874    0.999
      4.876    0.998
      4.878    0.998
      4.880    0.999
      4.882    0.998
      4.884    0.998
      4.886    0.998
      4.888    0.999
      4.890    0.999
      4.892    0.998
      4.894    0.999
      4.896    0.998
      4.898    0.998
      4.900    0.999
      4.902    0.999
      4.904    0.998
      4.906    0.998
      4.908    0.999
      4.910    0.998
      4.912    0.998
      4.914    0.999
      4.916    0.999
      4.918    0.998
      4.920    0.999
      4.922    0.999
      4.924    0.998
      4.926    0.999
      4.928    0.999
      4.930    0.998
      4.932    0.999
      4.934    0.999
      4.936    0.999
      4.938    0.998
      4.940    0.999
      4.942    0.999
      4.944    0.998
      4.946    0.999
      4.948    0.999
