# This file was created Wed Feb  7 05:13:04 2024
# Created by:
#                       :-) GROMACS - gmx saxs, 2023.3 (-:
# 
# Executable:   /opt/dev/Framework/gromacs-2023.3-intel/bin/gmx_mpi
# Data prefix:  /opt/dev/Framework/gromacs-2023.3-intel
# Working dir:  /scratchbeta/dorchies/2071066.mesu2
# Command line:
#   gmx_mpi saxs -f traj_last_2ns.xtc -s topol.tpr -n index.ndx -startq 0.6 -endq 30 -energy 16 -sq saxs_2ns_ACN-5M-H2O-0p1M-LiClO4-reduced-charges.xvg
# gmx saxs is part of G R O M A C S:
#
# Good ROcking Metal Altar for Chronical Sinners
#
@    title "Scattering Intensity"
@    xaxis  label "q (1/nm)"
@    yaxis  label "Intensity (a.u.)"
@TYPE xy
   0.62832       6.15582 
   1.25664       5.82367 
   1.88496       4.86508 
   2.51327       4.34304 
   3.14159       3.88933 
   3.76991       3.61660 
   4.39823       3.46033 
   5.02655       3.34646 
   5.65487       3.35159 
   6.28319       3.39736 
   6.91150       3.53229 
   7.53982       3.72127 
   8.16814       4.02184 
   8.79646       4.44174 
   9.42478       4.94777 
  10.05310       5.61597 
  10.68142       6.47666 
  11.30973       7.52827 
  11.93805       8.74124 
  12.56637      10.21465 
  13.19469      12.10364 
  13.82301      14.48254 
  14.45133      17.34314 
  15.07964      20.45348 
  15.70796      23.35011 
  16.33628      25.34684 
  16.96460      26.21684 
  17.59292      25.98704 
  18.22124      24.80293 
  18.84956      22.96918 
  19.47787      20.74549 
  20.10619      18.47191 
  20.73451      16.26703 
  21.36283      14.25710 
  21.99115      12.51410 
  22.61947      11.06423 
  23.24779       9.86539 
  23.87610       8.87064 
  24.50442       8.06156 
  25.13274       7.38769 
  25.76106       6.81218 
  26.38938       6.33377 
  27.01770       5.92106 
  27.64602       5.56666 
  28.27433       5.26607 
  28.90265       5.00564 
  29.53097       4.78939 
